{
  "collectionName": "components_items_journeys",
  "info": {
    "displayName": "Journey",
    "description": ""
  },
  "options": {},
  "attributes": {
    "year": {
      "type": "integer",
      "default": 22,
      "required": true
    },
    "image": {
      "type": "media",
      "multiple": false,
      "required": false,
      "allowedTypes": [
        "images"
      ]
    },
    "description": {
      "type": "richtext",
      "required": true
    }
  }
}
