{
  "key": "plugin_content_manager_configuration_content_types::api::about.about",
  "value": {
    "uid": "api::about.about",
    "settings": {
      "bulkable": true,
      "filterable": true,
      "searchable": true,
      "pageSize": 10,
      "mainField": "title",
      "defaultSortBy": "title",
      "defaultSortOrder": "ASC"
    },
    "metadatas": {
      "id": {
        "edit": {},
        "list": {
          "label": "id",
          "searchable": true,
          "sortable": true
        }
      },
      "title": {
        "edit": {
          "label": "Title",
          "description": "",
          "placeholder": "",
          "visible": true,
          "editable": true
        },
        "list": {
          "label": "title",
          "searchable": true,
          "sortable": true
        }
      },
      "description": {
        "edit": {
          "label": "description",
          "description": "",
          "placeholder": "",
          "visible": true,
          "editable": true
        },
        "list": {
          "label": "description",
          "searchable": false,
          "sortable": false
        }
      },
      "chief": {
        "edit": {
          "label": "Chief",
          "description": "",
          "placeholder": "",
          "visible": true,
          "editable": true
        },
        "list": {
          "label": "chief",
          "searchable": false,
          "sortable": false
        }
      },
      "video": {
        "edit": {
          "label": "Video",
          "description": "",
          "placeholder": "",
          "visible": true,
          "editable": true
        },
        "list": {
          "label": "video",
          "searchable": false,
          "sortable": false
        }
      },
      "createdAt": {
        "edit": {
          "label": "createdAt",
          "description": "",
          "placeholder": "",
          "visible": false,
          "editable": true
        },
        "list": {
          "label": "createdAt",
          "searchable": true,
          "sortable": true
        }
      },
      "updatedAt": {
        "edit": {
          "label": "updatedAt",
          "description": "",
          "placeholder": "",
          "visible": false,
          "editable": true
        },
        "list": {
          "label": "updatedAt",
          "searchable": true,
          "sortable": true
        }
      }
    },
    "layouts": {
      "edit": [
        [
          {
            "name": "title",
            "size": 12
          }
        ],
        [
          {
            "name": "description",
            "size": 12
          }
        ],
        [
          {
            "name": "chief",
            "size": 12
          }
        ],
        [
          {
            "name": "video",
            "size": 12
          }
        ]
      ],
      "editRelations": [],
      "list": [
        "id",
        "title",
        "chief",
        "video"
      ]
    }
  },
  "type": "object",
  "environment": null,
  "tag": null
}