{
  "key": "plugin_content_manager_configuration_components::items.mission",
  "value": {
    "uid": "items.mission",
    "settings": {
      "bulkable": true,
      "filterable": true,
      "searchable": true,
      "pageSize": 10,
      "mainField": "name",
      "defaultSortBy": "name",
      "defaultSortOrder": "ASC"
    },
    "metadatas": {
      "id": {
        "edit": {},
        "list": {
          "label": "id",
          "searchable": false,
          "sortable": false
        }
      },
      "image": {
        "edit": {
          "label": "Image",
          "description": "",
          "placeholder": "",
          "visible": true,
          "editable": true
        },
        "list": {
          "label": "image",
          "searchable": false,
          "sortable": false
        }
      },
      "name": {
        "edit": {
          "label": "Name",
          "description": "",
          "placeholder": "",
          "visible": true,
          "editable": true
        },
        "list": {
          "label": "name",
          "searchable": true,
          "sortable": true
        }
      },
      "description": {
        "edit": {
          "label": "Description",
          "description": "",
          "placeholder": "",
          "visible": true,
          "editable": true
        },
        "list": {
          "label": "description",
          "searchable": true,
          "sortable": true
        }
      }
    },
    "layouts": {
      "list": [
        "id",
        "image",
        "name",
        "description"
      ],
      "edit": [
        [
          {
            "name": "image",
            "size": 12
          }
        ],
        [
          {
            "name": "name",
            "size": 12
          }
        ],
        [
          {
            "name": "description",
            "size": 12
          }
        ]
      ],
      "editRelations": []
    },
    "isComponent": true
  },
  "type": "object",
  "environment": null,
  "tag": null
}