{
  "key": "strapi_content_types_schema",
  "value": {
    "admin::permission": {
      "collectionName": "admin_permissions",
      "info": {
        "name": "Permission",
        "description": "",
        "singularName": "permission",
        "pluralName": "permissions",
        "displayName": "Permission"
      },
      "options": {},
      "pluginOptions": {
        "content-manager": {
          "visible": false
        },
        "content-type-builder": {
          "visible": false
        }
      },
      "attributes": {
        "action": {
          "type": "string",
          "minLength": 1,
          "configurable": false,
          "required": true
        },
        "subject": {
          "type": "string",
          "minLength": 1,
          "configurable": false,
          "required": false
        },
        "properties": {
          "type": "json",
          "configurable": false,
          "required": false,
          "default": {}
        },
        "conditions": {
          "type": "json",
          "configurable": false,
          "required": false,
          "default": []
        },
        "role": {
          "configurable": false,
          "type": "relation",
          "relation": "manyToOne",
          "inversedBy": "permissions",
          "target": "admin::role"
        },
        "createdAt": {
          "type": "datetime"
        },
        "updatedAt": {
          "type": "datetime"
        },
        "createdBy": {
          "type": "relation",
          "relation": "oneToOne",
          "target": "admin::user",
          "configurable": false,
          "writable": false,
          "visible": false,
          "useJoinTable": false,
          "private": true
        },
        "updatedBy": {
          "type": "relation",
          "relation": "oneToOne",
          "target": "admin::user",
          "configurable": false,
          "writable": false,
          "visible": false,
          "useJoinTable": false,
          "private": true
        }
      },
      "kind": "collectionType",
      "__schema__": {
        "collectionName": "admin_permissions",
        "info": {
          "name": "Permission",
          "description": "",
          "singularName": "permission",
          "pluralName": "permissions",
          "displayName": "Permission"
        },
        "options": {},
        "pluginOptions": {
          "content-manager": {
            "visible": false
          },
          "content-type-builder": {
            "visible": false
          }
        },
        "attributes": {
          "action": {
            "type": "string",
            "minLength": 1,
            "configurable": false,
            "required": true
          },
          "subject": {
            "type": "string",
            "minLength": 1,
            "configurable": false,
            "required": false
          },
          "properties": {
            "type": "json",
            "configurable": false,
            "required": false,
            "default": {}
          },
          "conditions": {
            "type": "json",
            "configurable": false,
            "required": false,
            "default": []
          },
          "role": {
            "configurable": false,
            "type": "relation",
            "relation": "manyToOne",
            "inversedBy": "permissions",
            "target": "admin::role"
          }
        },
        "kind": "collectionType"
      },
      "modelType": "contentType",
      "modelName": "permission",
      "connection": "default",
      "uid": "admin::permission",
      "plugin": "admin",
      "globalId": "AdminPermission"
    },
    "admin::user": {
      "collectionName": "admin_users",
      "info": {
        "name": "User",
        "description": "",
        "singularName": "user",
        "pluralName": "users",
        "displayName": "User"
      },
      "pluginOptions": {
        "content-manager": {
          "visible": false
        },
        "content-type-builder": {
          "visible": false
        }
      },
      "attributes": {
        "firstname": {
          "type": "string",
          "unique": false,
          "minLength": 1,
          "configurable": false,
          "required": false
        },
        "lastname": {
          "type": "string",
          "unique": false,
          "minLength": 1,
          "configurable": false,
          "required": false
        },
        "username": {
          "type": "string",
          "unique": false,
          "configurable": false,
          "required": false
        },
        "email": {
          "type": "email",
          "minLength": 6,
          "configurable": false,
          "required": true,
          "unique": true,
          "private": true
        },
        "password": {
          "type": "password",
          "minLength": 6,
          "configurable": false,
          "required": false,
          "private": true
        },
        "resetPasswordToken": {
          "type": "string",
          "configurable": false,
          "private": true
        },
        "registrationToken": {
          "type": "string",
          "configurable": false,
          "private": true
        },
        "isActive": {
          "type": "boolean",
          "default": false,
          "configurable": false,
          "private": true
        },
        "roles": {
          "configurable": false,
          "private": true,
          "type": "relation",
          "relation": "manyToMany",
          "inversedBy": "users",
          "target": "admin::role",
          "collectionName": "strapi_users_roles"
        },
        "blocked": {
          "type": "boolean",
          "default": false,
          "configurable": false,
          "private": true
        },
        "preferedLanguage": {
          "type": "string",
          "configurable": false,
          "required": false
        },
        "createdAt": {
          "type": "datetime"
        },
        "updatedAt": {
          "type": "datetime"
        },
        "createdBy": {
          "type": "relation",
          "relation": "oneToOne",
          "target": "admin::user",
          "configurable": false,
          "writable": false,
          "visible": false,
          "useJoinTable": false,
          "private": true
        },
        "updatedBy": {
          "type": "relation",
          "relation": "oneToOne",
          "target": "admin::user",
          "configurable": false,
          "writable": false,
          "visible": false,
          "useJoinTable": false,
          "private": true
        }
      },
      "kind": "collectionType",
      "__schema__": {
        "collectionName": "admin_users",
        "info": {
          "name": "User",
          "description": "",
          "singularName": "user",
          "pluralName": "users",
          "displayName": "User"
        },
        "pluginOptions": {
          "content-manager": {
            "visible": false
          },
          "content-type-builder": {
            "visible": false
          }
        },
        "attributes": {
          "firstname": {
            "type": "string",
            "unique": false,
            "minLength": 1,
            "configurable": false,
            "required": false
          },
          "lastname": {
            "type": "string",
            "unique": false,
            "minLength": 1,
            "configurable": false,
            "required": false
          },
          "username": {
            "type": "string",
            "unique": false,
            "configurable": false,
            "required": false
          },
          "email": {
            "type": "email",
            "minLength": 6,
            "configurable": false,
            "required": true,
            "unique": true,
            "private": true
          },
          "password": {
            "type": "password",
            "minLength": 6,
            "configurable": false,
            "required": false,
            "private": true
          },
          "resetPasswordToken": {
            "type": "string",
            "configurable": false,
            "private": true
          },
          "registrationToken": {
            "type": "string",
            "configurable": false,
            "private": true
          },
          "isActive": {
            "type": "boolean",
            "default": false,
            "configurable": false,
            "private": true
          },
          "roles": {
            "configurable": false,
            "private": true,
            "type": "relation",
            "relation": "manyToMany",
            "inversedBy": "users",
            "target": "admin::role",
            "collectionName": "strapi_users_roles"
          },
          "blocked": {
            "type": "boolean",
            "default": false,
            "configurable": false,
            "private": true
          },
          "preferedLanguage": {
            "type": "string",
            "configurable": false,
            "required": false
          }
        },
        "kind": "collectionType"
      },
      "modelType": "contentType",
      "modelName": "user",
      "connection": "default",
      "uid": "admin::user",
      "plugin": "admin",
      "globalId": "AdminUser"
    },
    "admin::role": {
      "collectionName": "admin_roles",
      "info": {
        "name": "Role",
        "description": "",
        "singularName": "role",
        "pluralName": "roles",
        "displayName": "Role"
      },
      "options": {},
      "pluginOptions": {
        "content-manager": {
          "visible": false
        },
        "content-type-builder": {
          "visible": false
        }
      },
      "attributes": {
        "name": {
          "type": "string",
          "minLength": 1,
          "unique": true,
          "configurable": false,
          "required": true
        },
        "code": {
          "type": "string",
          "minLength": 1,
          "unique": true,
          "configurable": false,
          "required": true
        },
        "description": {
          "type": "string",
          "configurable": false
        },
        "users": {
          "configurable": false,
          "type": "relation",
          "relation": "manyToMany",
          "mappedBy": "roles",
          "target": "admin::user"
        },
        "permissions": {
          "configurable": false,
          "type": "relation",
          "relation": "oneToMany",
          "mappedBy": "role",
          "target": "admin::permission"
        },
        "createdAt": {
          "type": "datetime"
        },
        "updatedAt": {
          "type": "datetime"
        },
        "createdBy": {
          "type": "relation",
          "relation": "oneToOne",
          "target": "admin::user",
          "configurable": false,
          "writable": false,
          "visible": false,
          "useJoinTable": false,
          "private": true
        },
        "updatedBy": {
          "type": "relation",
          "relation": "oneToOne",
          "target": "admin::user",
          "configurable": false,
          "writable": false,
          "visible": false,
          "useJoinTable": false,
          "private": true
        }
      },
      "kind": "collectionType",
      "__schema__": {
        "collectionName": "admin_roles",
        "info": {
          "name": "Role",
          "description": "",
          "singularName": "role",
          "pluralName": "roles",
          "displayName": "Role"
        },
        "options": {},
        "pluginOptions": {
          "content-manager": {
            "visible": false
          },
          "content-type-builder": {
            "visible": false
          }
        },
        "attributes": {
          "name": {
            "type": "string",
            "minLength": 1,
            "unique": true,
            "configurable": false,
            "required": true
          },
          "code": {
            "type": "string",
            "minLength": 1,
            "unique": true,
            "configurable": false,
            "required": true
          },
          "description": {
            "type": "string",
            "configurable": false
          },
          "users": {
            "configurable": false,
            "type": "relation",
            "relation": "manyToMany",
            "mappedBy": "roles",
            "target": "admin::user"
          },
          "permissions": {
            "configurable": false,
            "type": "relation",
            "relation": "oneToMany",
            "mappedBy": "role",
            "target": "admin::permission"
          }
        },
        "kind": "collectionType"
      },
      "modelType": "contentType",
      "modelName": "role",
      "connection": "default",
      "uid": "admin::role",
      "plugin": "admin",
      "globalId": "AdminRole"
    },
    "admin::api-token": {
      "collectionName": "strapi_api_tokens",
      "info": {
        "name": "Api Token",
        "singularName": "api-token",
        "pluralName": "api-tokens",
        "displayName": "Api Token",
        "description": ""
      },
      "options": {},
      "pluginOptions": {
        "content-manager": {
          "visible": false
        },
        "content-type-builder": {
          "visible": false
        }
      },
      "attributes": {
        "name": {
          "type": "string",
          "minLength": 1,
          "configurable": false,
          "required": true
        },
        "description": {
          "type": "string",
          "minLength": 1,
          "configurable": false,
          "required": false,
          "default": ""
        },
        "type": {
          "type": "enumeration",
          "enum": [
            "read-only",
            "full-access"
          ],
          "configurable": false,
          "required": false,
          "default": "read-only"
        },
        "accessKey": {
          "type": "string",
          "minLength": 1,
          "configurable": false,
          "required": true
        },
        "createdAt": {
          "type": "datetime"
        },
        "updatedAt": {
          "type": "datetime"
        },
        "createdBy": {
          "type": "relation",
          "relation": "oneToOne",
          "target": "admin::user",
          "configurable": false,
          "writable": false,
          "visible": false,
          "useJoinTable": false,
          "private": true
        },
        "updatedBy": {
          "type": "relation",
          "relation": "oneToOne",
          "target": "admin::user",
          "configurable": false,
          "writable": false,
          "visible": false,
          "useJoinTable": false,
          "private": true
        }
      },
      "kind": "collectionType",
      "__schema__": {
        "collectionName": "strapi_api_tokens",
        "info": {
          "name": "Api Token",
          "singularName": "api-token",
          "pluralName": "api-tokens",
          "displayName": "Api Token",
          "description": ""
        },
        "options": {},
        "pluginOptions": {
          "content-manager": {
            "visible": false
          },
          "content-type-builder": {
            "visible": false
          }
        },
        "attributes": {
          "name": {
            "type": "string",
            "minLength": 1,
            "configurable": false,
            "required": true
          },
          "description": {
            "type": "string",
            "minLength": 1,
            "configurable": false,
            "required": false,
            "default": ""
          },
          "type": {
            "type": "enumeration",
            "enum": [
              "read-only",
              "full-access"
            ],
            "configurable": false,
            "required": false,
            "default": "read-only"
          },
          "accessKey": {
            "type": "string",
            "minLength": 1,
            "configurable": false,
            "required": true
          }
        },
        "kind": "collectionType"
      },
      "modelType": "contentType",
      "modelName": "api-token",
      "connection": "default",
      "uid": "admin::api-token",
      "plugin": "admin",
      "globalId": "AdminApiToken"
    },
    "plugin::upload.file": {
      "collectionName": "files",
      "info": {
        "singularName": "file",
        "pluralName": "files",
        "displayName": "File",
        "description": ""
      },
      "options": {},
      "pluginOptions": {
        "content-manager": {
          "visible": false
        },
        "content-type-builder": {
          "visible": false
        }
      },
      "attributes": {
        "name": {
          "type": "string",
          "configurable": false,
          "required": true
        },
        "alternativeText": {
          "type": "string",
          "configurable": false
        },
        "caption": {
          "type": "string",
          "configurable": false
        },
        "width": {
          "type": "integer",
          "configurable": false
        },
        "height": {
          "type": "integer",
          "configurable": false
        },
        "formats": {
          "type": "json",
          "configurable": false
        },
        "hash": {
          "type": "string",
          "configurable": false,
          "required": true
        },
        "ext": {
          "type": "string",
          "configurable": false
        },
        "mime": {
          "type": "string",
          "configurable": false,
          "required": true
        },
        "size": {
          "type": "decimal",
          "configurable": false,
          "required": true
        },
        "url": {
          "type": "string",
          "configurable": false,
          "required": true
        },
        "previewUrl": {
          "type": "string",
          "configurable": false
        },
        "provider": {
          "type": "string",
          "configurable": false,
          "required": true
        },
        "provider_metadata": {
          "type": "json",
          "configurable": false
        },
        "related": {
          "type": "relation",
          "relation": "morphToMany",
          "configurable": false
        },
        "folder": {
          "type": "relation",
          "relation": "manyToOne",
          "target": "plugin::upload.folder",
          "inversedBy": "files",
          "private": true
        },
        "folderPath": {
          "type": "string",
          "min": 1,
          "required": true,
          "private": true
        },
        "createdAt": {
          "type": "datetime"
        },
        "updatedAt": {
          "type": "datetime"
        },
        "createdBy": {
          "type": "relation",
          "relation": "oneToOne",
          "target": "admin::user",
          "configurable": false,
          "writable": false,
          "visible": false,
          "useJoinTable": false,
          "private": true
        },
        "updatedBy": {
          "type": "relation",
          "relation": "oneToOne",
          "target": "admin::user",
          "configurable": false,
          "writable": false,
          "visible": false,
          "useJoinTable": false,
          "private": true
        }
      },
      "indexes": [
        {
          "name": "upload_files_folder_path_index",
          "columns": [
            "folder_path"
          ],
          "type": null
        }
      ],
      "kind": "collectionType",
      "__schema__": {
        "collectionName": "files",
        "info": {
          "singularName": "file",
          "pluralName": "files",
          "displayName": "File",
          "description": ""
        },
        "options": {},
        "pluginOptions": {
          "content-manager": {
            "visible": false
          },
          "content-type-builder": {
            "visible": false
          }
        },
        "attributes": {
          "name": {
            "type": "string",
            "configurable": false,
            "required": true
          },
          "alternativeText": {
            "type": "string",
            "configurable": false
          },
          "caption": {
            "type": "string",
            "configurable": false
          },
          "width": {
            "type": "integer",
            "configurable": false
          },
          "height": {
            "type": "integer",
            "configurable": false
          },
          "formats": {
            "type": "json",
            "configurable": false
          },
          "hash": {
            "type": "string",
            "configurable": false,
            "required": true
          },
          "ext": {
            "type": "string",
            "configurable": false
          },
          "mime": {
            "type": "string",
            "configurable": false,
            "required": true
          },
          "size": {
            "type": "decimal",
            "configurable": false,
            "required": true
          },
          "url": {
            "type": "string",
            "configurable": false,
            "required": true
          },
          "previewUrl": {
            "type": "string",
            "configurable": false
          },
          "provider": {
            "type": "string",
            "configurable": false,
            "required": true
          },
          "provider_metadata": {
            "type": "json",
            "configurable": false
          },
          "related": {
            "type": "relation",
            "relation": "morphToMany",
            "configurable": false
          },
          "folder": {
            "type": "relation",
            "relation": "manyToOne",
            "target": "plugin::upload.folder",
            "inversedBy": "files",
            "private": true
          },
          "folderPath": {
            "type": "string",
            "min": 1,
            "required": true,
            "private": true
          }
        },
        "kind": "collectionType"
      },
      "modelType": "contentType",
      "modelName": "file",
      "connection": "default",
      "uid": "plugin::upload.file",
      "plugin": "upload",
      "globalId": "UploadFile"
    },
    "plugin::upload.folder": {
      "collectionName": "upload_folders",
      "info": {
        "singularName": "folder",
        "pluralName": "folders",
        "displayName": "Folder"
      },
      "options": {},
      "pluginOptions": {
        "content-manager": {
          "visible": false
        },
        "content-type-builder": {
          "visible": false
        }
      },
      "attributes": {
        "name": {
          "type": "string",
          "min": 1,
          "required": true
        },
        "pathId": {
          "type": "integer",
          "unique": true,
          "required": true
        },
        "parent": {
          "type": "relation",
          "relation": "manyToOne",
          "target": "plugin::upload.folder",
          "inversedBy": "children"
        },
        "children": {
          "type": "relation",
          "relation": "oneToMany",
          "target": "plugin::upload.folder",
          "mappedBy": "parent"
        },
        "files": {
          "type": "relation",
          "relation": "oneToMany",
          "target": "plugin::upload.file",
          "mappedBy": "folder"
        },
        "path": {
          "type": "string",
          "min": 1,
          "required": true
        },
        "createdAt": {
          "type": "datetime"
        },
        "updatedAt": {
          "type": "datetime"
        },
        "createdBy": {
          "type": "relation",
          "relation": "oneToOne",
          "target": "admin::user",
          "configurable": false,
          "writable": false,
          "visible": false,
          "useJoinTable": false,
          "private": true
        },
        "updatedBy": {
          "type": "relation",
          "relation": "oneToOne",
          "target": "admin::user",
          "configurable": false,
          "writable": false,
          "visible": false,
          "useJoinTable": false,
          "private": true
        }
      },
      "indexes": [
        {
          "name": "upload_folders_path_id_index",
          "columns": [
            "path_id"
          ],
          "type": "unique"
        },
        {
          "name": "upload_folders_path_index",
          "columns": [
            "path"
          ],
          "type": "unique"
        }
      ],
      "kind": "collectionType",
      "__schema__": {
        "collectionName": "upload_folders",
        "info": {
          "singularName": "folder",
          "pluralName": "folders",
          "displayName": "Folder"
        },
        "options": {},
        "pluginOptions": {
          "content-manager": {
            "visible": false
          },
          "content-type-builder": {
            "visible": false
          }
        },
        "attributes": {
          "name": {
            "type": "string",
            "min": 1,
            "required": true
          },
          "pathId": {
            "type": "integer",
            "unique": true,
            "required": true
          },
          "parent": {
            "type": "relation",
            "relation": "manyToOne",
            "target": "plugin::upload.folder",
            "inversedBy": "children"
          },
          "children": {
            "type": "relation",
            "relation": "oneToMany",
            "target": "plugin::upload.folder",
            "mappedBy": "parent"
          },
          "files": {
            "type": "relation",
            "relation": "oneToMany",
            "target": "plugin::upload.file",
            "mappedBy": "folder"
          },
          "path": {
            "type": "string",
            "min": 1,
            "required": true
          }
        },
        "kind": "collectionType"
      },
      "modelType": "contentType",
      "modelName": "folder",
      "connection": "default",
      "uid": "plugin::upload.folder",
      "plugin": "upload",
      "globalId": "UploadFolder"
    },
    "plugin::i18n.locale": {
      "info": {
        "singularName": "locale",
        "pluralName": "locales",
        "collectionName": "locales",
        "displayName": "Locale",
        "description": ""
      },
      "options": {
        "draftAndPublish": false
      },
      "pluginOptions": {
        "content-manager": {
          "visible": false
        },
        "content-type-builder": {
          "visible": false
        }
      },
      "attributes": {
        "name": {
          "type": "string",
          "min": 1,
          "max": 50,
          "configurable": false
        },
        "code": {
          "type": "string",
          "unique": true,
          "configurable": false
        },
        "createdAt": {
          "type": "datetime"
        },
        "updatedAt": {
          "type": "datetime"
        },
        "createdBy": {
          "type": "relation",
          "relation": "oneToOne",
          "target": "admin::user",
          "configurable": false,
          "writable": false,
          "visible": false,
          "useJoinTable": false,
          "private": true
        },
        "updatedBy": {
          "type": "relation",
          "relation": "oneToOne",
          "target": "admin::user",
          "configurable": false,
          "writable": false,
          "visible": false,
          "useJoinTable": false,
          "private": true
        }
      },
      "kind": "collectionType",
      "__schema__": {
        "info": {
          "singularName": "locale",
          "pluralName": "locales",
          "collectionName": "locales",
          "displayName": "Locale",
          "description": ""
        },
        "options": {
          "draftAndPublish": false
        },
        "pluginOptions": {
          "content-manager": {
            "visible": false
          },
          "content-type-builder": {
            "visible": false
          }
        },
        "attributes": {
          "name": {
            "type": "string",
            "min": 1,
            "max": 50,
            "configurable": false
          },
          "code": {
            "type": "string",
            "unique": true,
            "configurable": false
          }
        },
        "kind": "collectionType"
      },
      "modelType": "contentType",
      "modelName": "locale",
      "connection": "default",
      "uid": "plugin::i18n.locale",
      "plugin": "i18n",
      "collectionName": "i18n_locale",
      "globalId": "I18NLocale"
    },
    "plugin::users-permissions.permission": {
      "collectionName": "up_permissions",
      "info": {
        "name": "permission",
        "description": "",
        "singularName": "permission",
        "pluralName": "permissions",
        "displayName": "Permission"
      },
      "pluginOptions": {
        "content-manager": {
          "visible": false
        },
        "content-type-builder": {
          "visible": false
        }
      },
      "attributes": {
        "action": {
          "type": "string",
          "required": true,
          "configurable": false
        },
        "role": {
          "type": "relation",
          "relation": "manyToOne",
          "target": "plugin::users-permissions.role",
          "inversedBy": "permissions",
          "configurable": false
        },
        "createdAt": {
          "type": "datetime"
        },
        "updatedAt": {
          "type": "datetime"
        },
        "createdBy": {
          "type": "relation",
          "relation": "oneToOne",
          "target": "admin::user",
          "configurable": false,
          "writable": false,
          "visible": false,
          "useJoinTable": false,
          "private": true
        },
        "updatedBy": {
          "type": "relation",
          "relation": "oneToOne",
          "target": "admin::user",
          "configurable": false,
          "writable": false,
          "visible": false,
          "useJoinTable": false,
          "private": true
        }
      },
      "kind": "collectionType",
      "__schema__": {
        "collectionName": "up_permissions",
        "info": {
          "name": "permission",
          "description": "",
          "singularName": "permission",
          "pluralName": "permissions",
          "displayName": "Permission"
        },
        "pluginOptions": {
          "content-manager": {
            "visible": false
          },
          "content-type-builder": {
            "visible": false
          }
        },
        "attributes": {
          "action": {
            "type": "string",
            "required": true,
            "configurable": false
          },
          "role": {
            "type": "relation",
            "relation": "manyToOne",
            "target": "plugin::users-permissions.role",
            "inversedBy": "permissions",
            "configurable": false
          }
        },
        "kind": "collectionType"
      },
      "modelType": "contentType",
      "modelName": "permission",
      "connection": "default",
      "uid": "plugin::users-permissions.permission",
      "plugin": "users-permissions",
      "globalId": "UsersPermissionsPermission"
    },
    "plugin::users-permissions.role": {
      "collectionName": "up_roles",
      "info": {
        "name": "role",
        "description": "",
        "singularName": "role",
        "pluralName": "roles",
        "displayName": "Role"
      },
      "pluginOptions": {
        "content-manager": {
          "visible": false
        },
        "content-type-builder": {
          "visible": false
        }
      },
      "attributes": {
        "name": {
          "type": "string",
          "minLength": 3,
          "required": true,
          "configurable": false
        },
        "description": {
          "type": "string",
          "configurable": false
        },
        "type": {
          "type": "string",
          "unique": true,
          "configurable": false
        },
        "permissions": {
          "type": "relation",
          "relation": "oneToMany",
          "target": "plugin::users-permissions.permission",
          "mappedBy": "role",
          "configurable": false
        },
        "users": {
          "type": "relation",
          "relation": "oneToMany",
          "target": "plugin::users-permissions.user",
          "mappedBy": "role",
          "configurable": false
        },
        "createdAt": {
          "type": "datetime"
        },
        "updatedAt": {
          "type": "datetime"
        },
        "createdBy": {
          "type": "relation",
          "relation": "oneToOne",
          "target": "admin::user",
          "configurable": false,
          "writable": false,
          "visible": false,
          "useJoinTable": false,
          "private": true
        },
        "updatedBy": {
          "type": "relation",
          "relation": "oneToOne",
          "target": "admin::user",
          "configurable": false,
          "writable": false,
          "visible": false,
          "useJoinTable": false,
          "private": true
        }
      },
      "kind": "collectionType",
      "__schema__": {
        "collectionName": "up_roles",
        "info": {
          "name": "role",
          "description": "",
          "singularName": "role",
          "pluralName": "roles",
          "displayName": "Role"
        },
        "pluginOptions": {
          "content-manager": {
            "visible": false
          },
          "content-type-builder": {
            "visible": false
          }
        },
        "attributes": {
          "name": {
            "type": "string",
            "minLength": 3,
            "required": true,
            "configurable": false
          },
          "description": {
            "type": "string",
            "configurable": false
          },
          "type": {
            "type": "string",
            "unique": true,
            "configurable": false
          },
          "permissions": {
            "type": "relation",
            "relation": "oneToMany",
            "target": "plugin::users-permissions.permission",
            "mappedBy": "role",
            "configurable": false
          },
          "users": {
            "type": "relation",
            "relation": "oneToMany",
            "target": "plugin::users-permissions.user",
            "mappedBy": "role",
            "configurable": false
          }
        },
        "kind": "collectionType"
      },
      "modelType": "contentType",
      "modelName": "role",
      "connection": "default",
      "uid": "plugin::users-permissions.role",
      "plugin": "users-permissions",
      "globalId": "UsersPermissionsRole"
    },
    "plugin::users-permissions.user": {
      "collectionName": "up_users",
      "info": {
        "name": "user",
        "description": "",
        "singularName": "user",
        "pluralName": "users",
        "displayName": "User"
      },
      "options": {
        "draftAndPublish": false,
        "timestamps": true
      },
      "attributes": {
        "username": {
          "type": "string",
          "minLength": 3,
          "unique": true,
          "configurable": false,
          "required": true
        },
        "email": {
          "type": "email",
          "minLength": 6,
          "configurable": false,
          "required": true
        },
        "provider": {
          "type": "string",
          "configurable": false
        },
        "password": {
          "type": "password",
          "minLength": 6,
          "configurable": false,
          "private": true
        },
        "resetPasswordToken": {
          "type": "string",
          "configurable": false,
          "private": true
        },
        "confirmationToken": {
          "type": "string",
          "configurable": false,
          "private": true
        },
        "confirmed": {
          "type": "boolean",
          "default": false,
          "configurable": false
        },
        "blocked": {
          "type": "boolean",
          "default": false,
          "configurable": false
        },
        "role": {
          "type": "relation",
          "relation": "manyToOne",
          "target": "plugin::users-permissions.role",
          "inversedBy": "users",
          "configurable": false
        },
        "createdAt": {
          "type": "datetime"
        },
        "updatedAt": {
          "type": "datetime"
        },
        "createdBy": {
          "type": "relation",
          "relation": "oneToOne",
          "target": "admin::user",
          "configurable": false,
          "writable": false,
          "visible": false,
          "useJoinTable": false,
          "private": true
        },
        "updatedBy": {
          "type": "relation",
          "relation": "oneToOne",
          "target": "admin::user",
          "configurable": false,
          "writable": false,
          "visible": false,
          "useJoinTable": false,
          "private": true
        }
      },
      "config": {
        "attributes": {
          "resetPasswordToken": {
            "hidden": true
          },
          "confirmationToken": {
            "hidden": true
          },
          "provider": {
            "hidden": true
          }
        }
      },
      "kind": "collectionType",
      "__schema__": {
        "collectionName": "up_users",
        "info": {
          "name": "user",
          "description": "",
          "singularName": "user",
          "pluralName": "users",
          "displayName": "User"
        },
        "options": {
          "draftAndPublish": false,
          "timestamps": true
        },
        "attributes": {
          "username": {
            "type": "string",
            "minLength": 3,
            "unique": true,
            "configurable": false,
            "required": true
          },
          "email": {
            "type": "email",
            "minLength": 6,
            "configurable": false,
            "required": true
          },
          "provider": {
            "type": "string",
            "configurable": false
          },
          "password": {
            "type": "password",
            "minLength": 6,
            "configurable": false,
            "private": true
          },
          "resetPasswordToken": {
            "type": "string",
            "configurable": false,
            "private": true
          },
          "confirmationToken": {
            "type": "string",
            "configurable": false,
            "private": true
          },
          "confirmed": {
            "type": "boolean",
            "default": false,
            "configurable": false
          },
          "blocked": {
            "type": "boolean",
            "default": false,
            "configurable": false
          },
          "role": {
            "type": "relation",
            "relation": "manyToOne",
            "target": "plugin::users-permissions.role",
            "inversedBy": "users",
            "configurable": false
          }
        },
        "kind": "collectionType"
      },
      "modelType": "contentType",
      "modelName": "user",
      "connection": "default",
      "uid": "plugin::users-permissions.user",
      "plugin": "users-permissions",
      "globalId": "UsersPermissionsUser"
    },
    "api::about.about": {
      "kind": "singleType",
      "collectionName": "abouts",
      "info": {
        "singularName": "about",
        "pluralName": "abouts",
        "displayName": "About",
        "description": ""
      },
      "options": {
        "draftAndPublish": false
      },
      "pluginOptions": {},
      "attributes": {
        "title": {
          "type": "string",
          "default": "responsible & sustainable investment company"
        },
        "description": {
          "type": "dynamiczone",
          "components": [
            "shared.paragraph"
          ]
        },
        "chief": {
          "displayName": "Chief",
          "type": "component",
          "repeatable": false,
          "component": "about.chief"
        },
        "video": {
          "displayName": "Video",
          "type": "component",
          "repeatable": false,
          "component": "about.video"
        },
        "createdAt": {
          "type": "datetime"
        },
        "updatedAt": {
          "type": "datetime"
        },
        "createdBy": {
          "type": "relation",
          "relation": "oneToOne",
          "target": "admin::user",
          "configurable": false,
          "writable": false,
          "visible": false,
          "useJoinTable": false,
          "private": true
        },
        "updatedBy": {
          "type": "relation",
          "relation": "oneToOne",
          "target": "admin::user",
          "configurable": false,
          "writable": false,
          "visible": false,
          "useJoinTable": false,
          "private": true
        }
      },
      "__schema__": {
        "collectionName": "abouts",
        "info": {
          "singularName": "about",
          "pluralName": "abouts",
          "displayName": "About",
          "description": ""
        },
        "options": {
          "draftAndPublish": false
        },
        "pluginOptions": {},
        "attributes": {
          "title": {
            "type": "string",
            "default": "responsible & sustainable investment company"
          },
          "description": {
            "type": "dynamiczone",
            "components": [
              "shared.paragraph"
            ]
          },
          "chief": {
            "displayName": "Chief",
            "type": "component",
            "repeatable": false,
            "component": "about.chief"
          },
          "video": {
            "displayName": "Video",
            "type": "component",
            "repeatable": false,
            "component": "about.video"
          }
        },
        "kind": "singleType"
      },
      "modelType": "contentType",
      "modelName": "about",
      "connection": "default",
      "uid": "api::about.about",
      "apiName": "about",
      "globalId": "About",
      "actions": {},
      "lifecycles": {}
    },
    "api::approach.approach": {
      "kind": "singleType",
      "collectionName": "approaches",
      "info": {
        "singularName": "approach",
        "pluralName": "approaches",
        "displayName": "[Portfolio] Approach",
        "description": ""
      },
      "options": {
        "draftAndPublish": false
      },
      "pluginOptions": {},
      "attributes": {
        "title": {
          "type": "string",
          "default": "Our investment approach is built upon three pillars:",
          "required": true
        },
        "label": {
          "type": "string",
          "default": "Care for",
          "required": true
        },
        "list": {
          "type": "component",
          "repeatable": true,
          "component": "items.mission"
        },
        "createdAt": {
          "type": "datetime"
        },
        "updatedAt": {
          "type": "datetime"
        },
        "createdBy": {
          "type": "relation",
          "relation": "oneToOne",
          "target": "admin::user",
          "configurable": false,
          "writable": false,
          "visible": false,
          "useJoinTable": false,
          "private": true
        },
        "updatedBy": {
          "type": "relation",
          "relation": "oneToOne",
          "target": "admin::user",
          "configurable": false,
          "writable": false,
          "visible": false,
          "useJoinTable": false,
          "private": true
        }
      },
      "__schema__": {
        "collectionName": "approaches",
        "info": {
          "singularName": "approach",
          "pluralName": "approaches",
          "displayName": "[Portfolio] Approach",
          "description": ""
        },
        "options": {
          "draftAndPublish": false
        },
        "pluginOptions": {},
        "attributes": {
          "title": {
            "type": "string",
            "default": "Our investment approach is built upon three pillars:",
            "required": true
          },
          "label": {
            "type": "string",
            "default": "Care for",
            "required": true
          },
          "list": {
            "type": "component",
            "repeatable": true,
            "component": "items.mission"
          }
        },
        "kind": "singleType"
      },
      "modelType": "contentType",
      "modelName": "approach",
      "connection": "default",
      "uid": "api::approach.approach",
      "apiName": "approach",
      "globalId": "Approach",
      "actions": {},
      "lifecycles": {}
    },
    "api::case.case": {
      "kind": "singleType",
      "collectionName": "cases",
      "info": {
        "singularName": "case",
        "pluralName": "cases",
        "displayName": "[Index] Case",
        "description": ""
      },
      "options": {
        "draftAndPublish": false
      },
      "pluginOptions": {},
      "attributes": {
        "title": {
          "type": "string",
          "required": true
        },
        "legend": {
          "type": "string",
          "required": true
        },
        "link": {
          "displayName": "Link",
          "type": "component",
          "repeatable": false,
          "component": "shared.link"
        },
        "createdAt": {
          "type": "datetime"
        },
        "updatedAt": {
          "type": "datetime"
        },
        "createdBy": {
          "type": "relation",
          "relation": "oneToOne",
          "target": "admin::user",
          "configurable": false,
          "writable": false,
          "visible": false,
          "useJoinTable": false,
          "private": true
        },
        "updatedBy": {
          "type": "relation",
          "relation": "oneToOne",
          "target": "admin::user",
          "configurable": false,
          "writable": false,
          "visible": false,
          "useJoinTable": false,
          "private": true
        }
      },
      "__schema__": {
        "collectionName": "cases",
        "info": {
          "singularName": "case",
          "pluralName": "cases",
          "displayName": "[Index] Case",
          "description": ""
        },
        "options": {
          "draftAndPublish": false
        },
        "pluginOptions": {},
        "attributes": {
          "title": {
            "type": "string",
            "required": true
          },
          "legend": {
            "type": "string",
            "required": true
          },
          "link": {
            "displayName": "Link",
            "type": "component",
            "repeatable": false,
            "component": "shared.link"
          }
        },
        "kind": "singleType"
      },
      "modelType": "contentType",
      "modelName": "case",
      "connection": "default",
      "uid": "api::case.case",
      "apiName": "case",
      "globalId": "Case",
      "actions": {},
      "lifecycles": {}
    },
    "api::header.header": {
      "kind": "collectionType",
      "collectionName": "headers",
      "info": {
        "singularName": "header",
        "pluralName": "headers",
        "displayName": "Header",
        "description": ""
      },
      "options": {
        "draftAndPublish": false
      },
      "pluginOptions": {},
      "attributes": {
        "title": {
          "type": "string",
          "required": true
        },
        "background": {
          "type": "media",
          "multiple": false,
          "required": true,
          "allowedTypes": [
            "images",
            "videos"
          ]
        },
        "page": {
          "type": "uid",
          "required": true
        },
        "seo": {
          "type": "component",
          "repeatable": false,
          "component": "shared.seo"
        },
        "createdAt": {
          "type": "datetime"
        },
        "updatedAt": {
          "type": "datetime"
        },
        "createdBy": {
          "type": "relation",
          "relation": "oneToOne",
          "target": "admin::user",
          "configurable": false,
          "writable": false,
          "visible": false,
          "useJoinTable": false,
          "private": true
        },
        "updatedBy": {
          "type": "relation",
          "relation": "oneToOne",
          "target": "admin::user",
          "configurable": false,
          "writable": false,
          "visible": false,
          "useJoinTable": false,
          "private": true
        }
      },
      "__schema__": {
        "collectionName": "headers",
        "info": {
          "singularName": "header",
          "pluralName": "headers",
          "displayName": "Header",
          "description": ""
        },
        "options": {
          "draftAndPublish": false
        },
        "pluginOptions": {},
        "attributes": {
          "title": {
            "type": "string",
            "required": true
          },
          "background": {
            "type": "media",
            "multiple": false,
            "required": true,
            "allowedTypes": [
              "images",
              "videos"
            ]
          },
          "page": {
            "type": "uid",
            "required": true
          },
          "seo": {
            "type": "component",
            "repeatable": false,
            "component": "shared.seo"
          }
        },
        "kind": "collectionType"
      },
      "modelType": "contentType",
      "modelName": "header",
      "connection": "default",
      "uid": "api::header.header",
      "apiName": "header",
      "globalId": "Header",
      "actions": {},
      "lifecycles": {}
    },
    "api::index-about.index-about": {
      "kind": "singleType",
      "collectionName": "index_abouts",
      "info": {
        "singularName": "index-about",
        "pluralName": "index-abouts",
        "displayName": "[Index] About",
        "description": ""
      },
      "options": {
        "draftAndPublish": false
      },
      "pluginOptions": {},
      "attributes": {
        "message": {
          "type": "text",
          "required": true
        },
        "description": {
          "type": "text",
          "required": true
        },
        "title": {
          "type": "string",
          "required": true
        },
        "createdAt": {
          "type": "datetime"
        },
        "updatedAt": {
          "type": "datetime"
        },
        "createdBy": {
          "type": "relation",
          "relation": "oneToOne",
          "target": "admin::user",
          "configurable": false,
          "writable": false,
          "visible": false,
          "useJoinTable": false,
          "private": true
        },
        "updatedBy": {
          "type": "relation",
          "relation": "oneToOne",
          "target": "admin::user",
          "configurable": false,
          "writable": false,
          "visible": false,
          "useJoinTable": false,
          "private": true
        }
      },
      "__schema__": {
        "collectionName": "index_abouts",
        "info": {
          "singularName": "index-about",
          "pluralName": "index-abouts",
          "displayName": "[Index] About",
          "description": ""
        },
        "options": {
          "draftAndPublish": false
        },
        "pluginOptions": {},
        "attributes": {
          "message": {
            "type": "text",
            "required": true
          },
          "description": {
            "type": "text",
            "required": true
          },
          "title": {
            "type": "string",
            "required": true
          }
        },
        "kind": "singleType"
      },
      "modelType": "contentType",
      "modelName": "index-about",
      "connection": "default",
      "uid": "api::index-about.index-about",
      "apiName": "index-about",
      "globalId": "IndexAbout",
      "actions": {},
      "lifecycles": {}
    },
    "api::industry.industry": {
      "kind": "collectionType",
      "collectionName": "industries",
      "info": {
        "singularName": "industry",
        "pluralName": "industries",
        "displayName": "Industry",
        "description": ""
      },
      "options": {
        "draftAndPublish": true
      },
      "pluginOptions": {},
      "attributes": {
        "name": {
          "type": "string",
          "required": true
        },
        "description": {
          "type": "text",
          "required": true
        },
        "image": {
          "type": "media",
          "multiple": false,
          "required": true,
          "allowedTypes": [
            "images"
          ]
        },
        "video": {
          "type": "media",
          "multiple": false,
          "required": true,
          "allowedTypes": [
            "videos"
          ]
        },
        "partner": {
          "type": "relation",
          "relation": "oneToOne",
          "target": "api::partner.partner"
        },
        "showOnIndex": {
          "type": "boolean",
          "default": true,
          "required": true
        },
        "showOnPortfolio": {
          "type": "boolean",
          "default": true,
          "required": true
        },
        "sort": {
          "type": "integer",
          "default": 1,
          "unique": false,
          "required": true,
          "min": 1
        },
        "createdAt": {
          "type": "datetime"
        },
        "updatedAt": {
          "type": "datetime"
        },
        "publishedAt": {
          "type": "datetime",
          "configurable": false,
          "writable": true,
          "visible": false
        },
        "createdBy": {
          "type": "relation",
          "relation": "oneToOne",
          "target": "admin::user",
          "configurable": false,
          "writable": false,
          "visible": false,
          "useJoinTable": false,
          "private": true
        },
        "updatedBy": {
          "type": "relation",
          "relation": "oneToOne",
          "target": "admin::user",
          "configurable": false,
          "writable": false,
          "visible": false,
          "useJoinTable": false,
          "private": true
        }
      },
      "__schema__": {
        "collectionName": "industries",
        "info": {
          "singularName": "industry",
          "pluralName": "industries",
          "displayName": "Industry",
          "description": ""
        },
        "options": {
          "draftAndPublish": true
        },
        "pluginOptions": {},
        "attributes": {
          "name": {
            "type": "string",
            "required": true
          },
          "description": {
            "type": "text",
            "required": true
          },
          "image": {
            "type": "media",
            "multiple": false,
            "required": true,
            "allowedTypes": [
              "images"
            ]
          },
          "video": {
            "type": "media",
            "multiple": false,
            "required": true,
            "allowedTypes": [
              "videos"
            ]
          },
          "partner": {
            "type": "relation",
            "relation": "oneToOne",
            "target": "api::partner.partner"
          },
          "showOnIndex": {
            "type": "boolean",
            "default": true,
            "required": true
          },
          "showOnPortfolio": {
            "type": "boolean",
            "default": true,
            "required": true
          },
          "sort": {
            "type": "integer",
            "default": 1,
            "unique": false,
            "required": true,
            "min": 1
          }
        },
        "kind": "collectionType"
      },
      "modelType": "contentType",
      "modelName": "industry",
      "connection": "default",
      "uid": "api::industry.industry",
      "apiName": "industry",
      "globalId": "Industry",
      "actions": {},
      "lifecycles": {}
    },
    "api::journey.journey": {
      "kind": "singleType",
      "collectionName": "journeys",
      "info": {
        "singularName": "journey",
        "pluralName": "journeys",
        "displayName": "[About] Journey",
        "description": ""
      },
      "options": {
        "draftAndPublish": true
      },
      "pluginOptions": {},
      "attributes": {
        "description": {
          "type": "string",
          "default": "Our journey",
          "required": true
        },
        "title": {
          "type": "string",
          "default": "Building Long Lasting Impact",
          "required": true
        },
        "list": {
          "displayName": "Journey",
          "type": "component",
          "repeatable": true,
          "component": "items.journey",
          "required": true
        },
        "createdAt": {
          "type": "datetime"
        },
        "updatedAt": {
          "type": "datetime"
        },
        "publishedAt": {
          "type": "datetime",
          "configurable": false,
          "writable": true,
          "visible": false
        },
        "createdBy": {
          "type": "relation",
          "relation": "oneToOne",
          "target": "admin::user",
          "configurable": false,
          "writable": false,
          "visible": false,
          "useJoinTable": false,
          "private": true
        },
        "updatedBy": {
          "type": "relation",
          "relation": "oneToOne",
          "target": "admin::user",
          "configurable": false,
          "writable": false,
          "visible": false,
          "useJoinTable": false,
          "private": true
        }
      },
      "__schema__": {
        "collectionName": "journeys",
        "info": {
          "singularName": "journey",
          "pluralName": "journeys",
          "displayName": "[About] Journey",
          "description": ""
        },
        "options": {
          "draftAndPublish": true
        },
        "pluginOptions": {},
        "attributes": {
          "description": {
            "type": "string",
            "default": "Our journey",
            "required": true
          },
          "title": {
            "type": "string",
            "default": "Building Long Lasting Impact",
            "required": true
          },
          "list": {
            "displayName": "Journey",
            "type": "component",
            "repeatable": true,
            "component": "items.journey",
            "required": true
          }
        },
        "kind": "singleType"
      },
      "modelType": "contentType",
      "modelName": "journey",
      "connection": "default",
      "uid": "api::journey.journey",
      "apiName": "journey",
      "globalId": "Journey",
      "actions": {},
      "lifecycles": {}
    },
    "api::message.message": {
      "kind": "collectionType",
      "collectionName": "messages",
      "info": {
        "singularName": "message",
        "pluralName": "messages",
        "displayName": "Message",
        "description": ""
      },
      "options": {
        "draftAndPublish": false
      },
      "pluginOptions": {},
      "attributes": {
        "name": {
          "type": "string"
        },
        "email": {
          "type": "email"
        },
        "phone": {
          "type": "string"
        },
        "message": {
          "type": "text"
        },
        "createdAt": {
          "type": "datetime"
        },
        "updatedAt": {
          "type": "datetime"
        },
        "createdBy": {
          "type": "relation",
          "relation": "oneToOne",
          "target": "admin::user",
          "configurable": false,
          "writable": false,
          "visible": false,
          "useJoinTable": false,
          "private": true
        },
        "updatedBy": {
          "type": "relation",
          "relation": "oneToOne",
          "target": "admin::user",
          "configurable": false,
          "writable": false,
          "visible": false,
          "useJoinTable": false,
          "private": true
        }
      },
      "__schema__": {
        "collectionName": "messages",
        "info": {
          "singularName": "message",
          "pluralName": "messages",
          "displayName": "Message",
          "description": ""
        },
        "options": {
          "draftAndPublish": false
        },
        "pluginOptions": {},
        "attributes": {
          "name": {
            "type": "string"
          },
          "email": {
            "type": "email"
          },
          "phone": {
            "type": "string"
          },
          "message": {
            "type": "text"
          }
        },
        "kind": "collectionType"
      },
      "modelType": "contentType",
      "modelName": "message",
      "connection": "default",
      "uid": "api::message.message",
      "apiName": "message",
      "globalId": "Message",
      "actions": {},
      "lifecycles": {}
    },
    "api::mission.mission": {
      "kind": "singleType",
      "collectionName": "missions",
      "info": {
        "singularName": "mission",
        "pluralName": "missions",
        "displayName": "[Index] Mission",
        "description": ""
      },
      "options": {
        "draftAndPublish": false
      },
      "pluginOptions": {},
      "attributes": {
        "title": {
          "type": "string",
          "default": "We care for",
          "required": true
        },
        "list": {
          "displayName": "Mission",
          "type": "component",
          "repeatable": true,
          "component": "items.mission",
          "max": 3
        },
        "createdAt": {
          "type": "datetime"
        },
        "updatedAt": {
          "type": "datetime"
        },
        "createdBy": {
          "type": "relation",
          "relation": "oneToOne",
          "target": "admin::user",
          "configurable": false,
          "writable": false,
          "visible": false,
          "useJoinTable": false,
          "private": true
        },
        "updatedBy": {
          "type": "relation",
          "relation": "oneToOne",
          "target": "admin::user",
          "configurable": false,
          "writable": false,
          "visible": false,
          "useJoinTable": false,
          "private": true
        }
      },
      "__schema__": {
        "collectionName": "missions",
        "info": {
          "singularName": "mission",
          "pluralName": "missions",
          "displayName": "[Index] Mission",
          "description": ""
        },
        "options": {
          "draftAndPublish": false
        },
        "pluginOptions": {},
        "attributes": {
          "title": {
            "type": "string",
            "default": "We care for",
            "required": true
          },
          "list": {
            "displayName": "Mission",
            "type": "component",
            "repeatable": true,
            "component": "items.mission",
            "max": 3
          }
        },
        "kind": "singleType"
      },
      "modelType": "contentType",
      "modelName": "mission",
      "connection": "default",
      "uid": "api::mission.mission",
      "apiName": "mission",
      "globalId": "Mission",
      "actions": {},
      "lifecycles": {}
    },
    "api::partner.partner": {
      "kind": "collectionType",
      "collectionName": "partners",
      "info": {
        "singularName": "partner",
        "pluralName": "partners",
        "displayName": "Partner",
        "description": ""
      },
      "options": {
        "draftAndPublish": true
      },
      "pluginOptions": {},
      "attributes": {
        "name": {
          "type": "string",
          "required": true
        },
        "logo": {
          "type": "media",
          "multiple": false,
          "required": true,
          "allowedTypes": [
            "images"
          ]
        },
        "link": {
          "type": "component",
          "repeatable": false,
          "component": "shared.link",
          "required": true
        },
        "description": {
          "type": "dynamiczone",
          "components": [
            "shared.paragraph"
          ],
          "required": true
        },
        "sort": {
          "type": "integer",
          "default": 1,
          "min": 1,
          "required": true
        },
        "createdAt": {
          "type": "datetime"
        },
        "updatedAt": {
          "type": "datetime"
        },
        "publishedAt": {
          "type": "datetime",
          "configurable": false,
          "writable": true,
          "visible": false
        },
        "createdBy": {
          "type": "relation",
          "relation": "oneToOne",
          "target": "admin::user",
          "configurable": false,
          "writable": false,
          "visible": false,
          "useJoinTable": false,
          "private": true
        },
        "updatedBy": {
          "type": "relation",
          "relation": "oneToOne",
          "target": "admin::user",
          "configurable": false,
          "writable": false,
          "visible": false,
          "useJoinTable": false,
          "private": true
        }
      },
      "__schema__": {
        "collectionName": "partners",
        "info": {
          "singularName": "partner",
          "pluralName": "partners",
          "displayName": "Partner",
          "description": ""
        },
        "options": {
          "draftAndPublish": true
        },
        "pluginOptions": {},
        "attributes": {
          "name": {
            "type": "string",
            "required": true
          },
          "logo": {
            "type": "media",
            "multiple": false,
            "required": true,
            "allowedTypes": [
              "images"
            ]
          },
          "link": {
            "type": "component",
            "repeatable": false,
            "component": "shared.link",
            "required": true
          },
          "description": {
            "type": "dynamiczone",
            "components": [
              "shared.paragraph"
            ],
            "required": true
          },
          "sort": {
            "type": "integer",
            "default": 1,
            "min": 1,
            "required": true
          }
        },
        "kind": "collectionType"
      },
      "modelType": "contentType",
      "modelName": "partner",
      "connection": "default",
      "uid": "api::partner.partner",
      "apiName": "partner",
      "globalId": "Partner",
      "actions": {},
      "lifecycles": {}
    },
    "api::portfolio.portfolio": {
      "kind": "singleType",
      "collectionName": "portfolios",
      "info": {
        "singularName": "portfolio",
        "pluralName": "portfolios",
        "displayName": "Portfolio",
        "description": ""
      },
      "options": {
        "draftAndPublish": false
      },
      "pluginOptions": {},
      "attributes": {
        "message": {
          "type": "text",
          "default": "There is an underlying theme in and around things we do, what we support and where we invest. It is about being responsible, building long lasting impact and, of course, creating economic value add."
        },
        "title": {
          "type": "string",
          "default": "Diversified Group Portfolio"
        },
        "label": {
          "type": "string",
          "default": "Sector Leading & Innovative Companies"
        },
        "createdAt": {
          "type": "datetime"
        },
        "updatedAt": {
          "type": "datetime"
        },
        "createdBy": {
          "type": "relation",
          "relation": "oneToOne",
          "target": "admin::user",
          "configurable": false,
          "writable": false,
          "visible": false,
          "useJoinTable": false,
          "private": true
        },
        "updatedBy": {
          "type": "relation",
          "relation": "oneToOne",
          "target": "admin::user",
          "configurable": false,
          "writable": false,
          "visible": false,
          "useJoinTable": false,
          "private": true
        }
      },
      "__schema__": {
        "collectionName": "portfolios",
        "info": {
          "singularName": "portfolio",
          "pluralName": "portfolios",
          "displayName": "Portfolio",
          "description": ""
        },
        "options": {
          "draftAndPublish": false
        },
        "pluginOptions": {},
        "attributes": {
          "message": {
            "type": "text",
            "default": "There is an underlying theme in and around things we do, what we support and where we invest. It is about being responsible, building long lasting impact and, of course, creating economic value add."
          },
          "title": {
            "type": "string",
            "default": "Diversified Group Portfolio"
          },
          "label": {
            "type": "string",
            "default": "Sector Leading & Innovative Companies"
          }
        },
        "kind": "singleType"
      },
      "modelType": "contentType",
      "modelName": "portfolio",
      "connection": "default",
      "uid": "api::portfolio.portfolio",
      "apiName": "portfolio",
      "globalId": "Portfolio",
      "actions": {},
      "lifecycles": {}
    },
    "api::post.post": {
      "kind": "collectionType",
      "collectionName": "posts",
      "info": {
        "singularName": "post",
        "pluralName": "posts",
        "displayName": "Post",
        "description": ""
      },
      "options": {
        "draftAndPublish": true
      },
      "pluginOptions": {},
      "attributes": {
        "name": {
          "type": "string",
          "required": true
        },
        "short": {
          "type": "media",
          "multiple": false,
          "required": true,
          "allowedTypes": [
            "images"
          ]
        },
        "full": {
          "type": "media",
          "multiple": false,
          "required": true,
          "allowedTypes": [
            "images"
          ]
        },
        "content": {
          "type": "richtext",
          "required": true
        },
        "slug": {
          "type": "uid",
          "targetField": "name",
          "required": true
        },
        "seo": {
          "type": "component",
          "repeatable": false,
          "component": "shared.seo"
        },
        "header": {
          "type": "media",
          "multiple": false,
          "required": true,
          "allowedTypes": [
            "images"
          ]
        },
        "date": {
          "type": "date"
        },
        "createdAt": {
          "type": "datetime"
        },
        "updatedAt": {
          "type": "datetime"
        },
        "publishedAt": {
          "type": "datetime",
          "configurable": false,
          "writable": true,
          "visible": false
        },
        "createdBy": {
          "type": "relation",
          "relation": "oneToOne",
          "target": "admin::user",
          "configurable": false,
          "writable": false,
          "visible": false,
          "useJoinTable": false,
          "private": true
        },
        "updatedBy": {
          "type": "relation",
          "relation": "oneToOne",
          "target": "admin::user",
          "configurable": false,
          "writable": false,
          "visible": false,
          "useJoinTable": false,
          "private": true
        }
      },
      "__schema__": {
        "collectionName": "posts",
        "info": {
          "singularName": "post",
          "pluralName": "posts",
          "displayName": "Post",
          "description": ""
        },
        "options": {
          "draftAndPublish": true
        },
        "pluginOptions": {},
        "attributes": {
          "name": {
            "type": "string",
            "required": true
          },
          "short": {
            "type": "media",
            "multiple": false,
            "required": true,
            "allowedTypes": [
              "images"
            ]
          },
          "full": {
            "type": "media",
            "multiple": false,
            "required": true,
            "allowedTypes": [
              "images"
            ]
          },
          "content": {
            "type": "richtext",
            "required": true
          },
          "slug": {
            "type": "uid",
            "targetField": "name",
            "required": true
          },
          "seo": {
            "type": "component",
            "repeatable": false,
            "component": "shared.seo"
          },
          "header": {
            "type": "media",
            "multiple": false,
            "required": true,
            "allowedTypes": [
              "images"
            ]
          },
          "date": {
            "type": "date"
          }
        },
        "kind": "collectionType"
      },
      "modelType": "contentType",
      "modelName": "post",
      "connection": "default",
      "uid": "api::post.post",
      "apiName": "post",
      "globalId": "Post",
      "actions": {},
      "lifecycles": {}
    },
    "api::setting.setting": {
      "kind": "singleType",
      "collectionName": "settings",
      "info": {
        "singularName": "setting",
        "pluralName": "settings",
        "displayName": "Setting",
        "description": ""
      },
      "options": {
        "draftAndPublish": false
      },
      "pluginOptions": {},
      "attributes": {
        "contacts": {
          "type": "component",
          "repeatable": true,
          "component": "items.contacts",
          "max": 2
        },
        "legal": {
          "type": "text"
        },
        "linkedin": {
          "type": "string"
        },
        "copyright": {
          "type": "string"
        },
        "twitter": {
          "type": "string"
        },
        "facebook": {
          "type": "string"
        },
        "og": {
          "displayName": "OG",
          "type": "component",
          "repeatable": false,
          "component": "shared.og"
        },
        "favicon": {
          "allowedTypes": [
            "images"
          ],
          "type": "media",
          "multiple": false
        },
        "faviconDark": {
          "allowedTypes": [
            "images"
          ],
          "type": "media",
          "multiple": false
        },
        "createdAt": {
          "type": "datetime"
        },
        "updatedAt": {
          "type": "datetime"
        },
        "createdBy": {
          "type": "relation",
          "relation": "oneToOne",
          "target": "admin::user",
          "configurable": false,
          "writable": false,
          "visible": false,
          "useJoinTable": false,
          "private": true
        },
        "updatedBy": {
          "type": "relation",
          "relation": "oneToOne",
          "target": "admin::user",
          "configurable": false,
          "writable": false,
          "visible": false,
          "useJoinTable": false,
          "private": true
        }
      },
      "__schema__": {
        "collectionName": "settings",
        "info": {
          "singularName": "setting",
          "pluralName": "settings",
          "displayName": "Setting",
          "description": ""
        },
        "options": {
          "draftAndPublish": false
        },
        "pluginOptions": {},
        "attributes": {
          "contacts": {
            "type": "component",
            "repeatable": true,
            "component": "items.contacts",
            "max": 2
          },
          "legal": {
            "type": "text"
          },
          "linkedin": {
            "type": "string"
          },
          "copyright": {
            "type": "string"
          },
          "twitter": {
            "type": "string"
          },
          "facebook": {
            "type": "string"
          },
          "og": {
            "displayName": "OG",
            "type": "component",
            "repeatable": false,
            "component": "shared.og"
          },
          "favicon": {
            "allowedTypes": [
              "images"
            ],
            "type": "media",
            "multiple": false
          },
          "faviconDark": {
            "allowedTypes": [
              "images"
            ],
            "type": "media",
            "multiple": false
          }
        },
        "kind": "singleType"
      },
      "modelType": "contentType",
      "modelName": "setting",
      "connection": "default",
      "uid": "api::setting.setting",
      "apiName": "setting",
      "globalId": "Setting",
      "actions": {},
      "lifecycles": {}
    }
  },
  "type": "object",
  "environment": null,
  "tag": null
}