{
  "key": "plugin_content_manager_configuration_content_types::api::journey.journey",
  "value": {
    "uid": "api::journey.journey",
    "settings": {
      "bulkable": true,
      "filterable": true,
      "searchable": true,
      "pageSize": 10,
      "mainField": "title",
      "defaultSortBy": "description",
      "defaultSortOrder": "ASC"
    },
    "metadatas": {
      "id": {
        "edit": {},
        "list": {
          "label": "id",
          "searchable": true,
          "sortable": true
        }
      },
      "description": {
        "edit": {
          "label": "Description",
          "description": "",
          "placeholder": "",
          "visible": true,
          "editable": true
        },
        "list": {
          "label": "description",
          "searchable": true,
          "sortable": true
        }
      },
      "title": {
        "edit": {
          "label": "Title",
          "description": "",
          "placeholder": "",
          "visible": true,
          "editable": true
        },
        "list": {
          "label": "title",
          "searchable": true,
          "sortable": true
        }
      },
      "list": {
        "edit": {
          "label": "List",
          "description": "",
          "placeholder": "",
          "visible": true,
          "editable": true
        },
        "list": {
          "label": "list",
          "searchable": false,
          "sortable": false
        }
      },
      "createdAt": {
        "edit": {
          "label": "createdAt",
          "description": "",
          "placeholder": "",
          "visible": false,
          "editable": true
        },
        "list": {
          "label": "createdAt",
          "searchable": true,
          "sortable": true
        }
      },
      "updatedAt": {
        "edit": {
          "label": "updatedAt",
          "description": "",
          "placeholder": "",
          "visible": false,
          "editable": true
        },
        "list": {
          "label": "updatedAt",
          "searchable": true,
          "sortable": true
        }
      }
    },
    "layouts": {
      "edit": [
        [
          {
            "name": "description",
            "size": 12
          }
        ],
        [
          {
            "name": "title",
            "size": 12
          }
        ],
        [
          {
            "name": "list",
            "size": 12
          }
        ]
      ],
      "editRelations": [],
      "list": [
        "id",
        "title",
        "list",
        "description"
      ]
    }
  },
  "type": "object",
  "environment": null,
  "tag": null
}