<svg width="12" height="12" viewBox="0 0 12 12" fill="none" xmlns="http://www.w3.org/2000/svg">
    <path d="M12 1.21143L10.7886 0L6 4.78857L1.21143 0L0 1.21143L4.78857 6L0 10.7886L1.21143 12L6 7.21143L10.7886 12L12 10.7886L7.21143 6L12 1.21143Z" fill="#000"/>
</svg>
