<svg width="216" height="110" viewBox="0 0 216 110" fill="none" xmlns="http://www.w3.org/2000/svg">
    <path d="M41.7881 87.8643H43.7781V90.0201C43.2253 90.1306 42.6725 90.1859 42.0645 90.1859C40.959 90.1859 40.1298 89.9095 39.5771 89.4121C39.0243 88.9146 38.7479 88.1407 38.7479 87.1457C38.7479 86.206 39.0243 85.4322 39.6323 84.8794C40.2404 84.3266 41.0695 84.0502 42.1198 84.0502C42.8384 84.0502 43.6122 84.2161 44.3861 84.4925L44.4967 84.5477L44.9942 83.5528L44.8836 83.4975C44.0544 83.1658 43.1148 83.0553 42.1751 83.0553C41.2354 83.0553 40.3509 83.2211 39.6876 83.5528C38.969 83.8844 38.4163 84.3819 38.0293 84.99C37.6424 85.598 37.4766 86.3719 37.4766 87.201C37.4766 88.4724 37.8635 89.5226 38.6374 90.2412C39.4112 90.9598 40.5168 91.3467 41.8987 91.3467C42.562 91.3467 43.1148 91.2915 43.6122 91.2362C44.1097 91.1809 44.6072 91.0703 45.0494 90.9598H45.16V86.9799H41.8987V87.8643H41.7881Z" fill="#E8E8E8"/>
    <path d="M57.2655 85.4322C57.2655 84.6583 56.9891 84.0502 56.4364 83.6633C55.8836 83.2764 55.0545 83.1106 53.9489 83.1106H51.3509V91.1256H52.6223V87.9196H54.2806L56.4364 91.1256H57.9841L55.4967 87.5879C56.6575 87.201 57.2655 86.4824 57.2655 85.4322ZM55.9389 85.4874C55.9389 85.9296 55.773 86.3166 55.4967 86.5377C55.165 86.7588 54.6675 86.8693 53.9489 86.8693H52.6223V84.1608H53.8384C54.557 84.1608 55.1097 84.2714 55.4414 84.4925C55.773 84.6583 55.9389 84.9899 55.9389 85.4874Z" fill="#E8E8E8"/>
    <path d="M67.2153 83C65.8886 83 64.8384 83.3869 64.0645 84.1055C63.3459 84.8241 62.959 85.8191 62.959 87.1457C62.959 88.4724 63.3459 89.4673 64.0645 90.1859C64.7831 90.9045 65.8334 91.2915 67.2153 91.2915C68.5419 91.2915 69.5921 90.9045 70.3107 90.1859C71.0293 89.4673 71.4163 88.4171 71.4163 87.1457C71.4163 85.8744 71.0293 84.8794 70.3107 84.1055C69.5921 83.3869 68.5419 83 67.2153 83ZM67.2153 90.1859C66.2756 90.1859 65.557 89.9095 65.0595 89.4121C64.562 88.9146 64.3409 88.1407 64.3409 87.0904C64.3409 86.0955 64.562 85.3216 65.0595 84.8241C65.557 84.3266 66.2756 84.0502 67.2153 84.0502C68.155 84.0502 68.8735 84.3266 69.371 84.8241C69.8685 85.3216 70.0896 86.0955 70.0896 87.0904C70.0896 88.0854 69.8685 88.8593 69.371 89.4121C68.8735 89.9095 68.155 90.1859 67.2153 90.1859Z" fill="#E8E8E8"/>
    <path d="M83.2454 88.3065C83.2454 88.9146 83.0796 89.4121 82.6926 89.6884C82.3057 90.0201 81.753 90.1859 81.0344 90.1859C80.2605 90.1859 79.7077 90.0201 79.3208 89.6884C78.9339 89.3568 78.768 88.9146 78.768 88.3065V83.1106H77.4967V88.2513C77.4967 89.191 77.8283 89.9095 78.4364 90.4623C79.0444 91.0151 79.9288 91.2362 81.0344 91.2362C82.1399 91.2362 83.0243 90.9598 83.6323 90.4623C84.2957 89.9095 84.572 89.191 84.572 88.3065V83.1658H83.3007V88.3065H83.2454Z" fill="#E8E8E8"/>
    <path d="M93.4163 83.1106H90.9841V91.1256H92.2555V88.0854H93.1952C94.356 88.0854 95.2957 87.8643 95.9037 87.4221C96.567 86.9799 96.8987 86.3166 96.8987 85.4874C96.8987 83.9397 95.7379 83.1106 93.4163 83.1106ZM95.572 85.5427C95.572 86.0955 95.4062 86.4271 95.0193 86.7035C94.6323 86.9246 93.969 87.0904 93.0846 87.0904H92.2555V84.1608H93.3057C94.0796 84.1608 94.6876 84.2714 95.0193 84.4925C95.4062 84.7136 95.572 85.0452 95.572 85.5427Z" fill="#E8E8E8"/>
    <path d="M96.8436 79.2113V46.8193H87.1702V59.5882H87.1149C85.4567 57.4877 82.6928 56.4927 78.7682 56.4927C73.3511 56.4927 68.321 59.2012 67.1049 65.2264C65.8335 59.2012 60.8034 56.4927 55.4416 56.4927C51.517 56.4927 48.7531 57.4877 47.0948 59.5882H47.0396V57.2113H37.6426V79.2113H47.0396V68.2666C47.0396 65.1711 48.6426 63.2364 52.3461 63.2364C55.8285 63.2364 57.5974 65.4475 57.5974 68.2666V79.2113H67.4918V72.5781C69.1501 77.7741 73.8486 80.0957 78.8788 80.0957C83.135 80.0957 85.8436 78.9902 87.5572 76.8344H87.6124V79.156H96.8436V79.2113ZM81.919 73.2967C78.1602 73.2967 76.6124 71.1962 76.6124 68.2666C76.6124 65.4475 78.3813 63.2364 81.8637 63.2364C85.6225 63.2364 87.1702 65.1158 87.1702 68.2666C87.1702 71.4173 85.6225 73.2967 81.919 73.2967Z" fill="#E8E8E8"/>
    <path d="M109.834 109.724H0.166016V0.0556641H109.834V109.724ZM3.37205 106.518H106.684V3.20642H3.37205V106.518Z" fill="#E8E8E8"/>
    <path d="M124.828 35.4214L124.468 36.3398C124.124 36.0892 123.583 35.9639 122.846 35.9639C122.155 35.9639 121.6 36.2611 121.181 36.8555C120.765 37.4499 120.558 38.2161 120.558 39.1543C120.558 40.0495 120.771 40.7764 121.197 41.335C121.626 41.89 122.18 42.1675 122.856 42.1675C123.594 42.1675 124.162 41.9061 124.559 41.3833L125.15 42.2051C124.527 42.8245 123.725 43.1343 122.744 43.1343C121.716 43.1343 120.907 42.7637 120.316 42.0225C119.725 41.2812 119.43 40.3037 119.43 39.0898C119.43 37.9154 119.745 36.9396 120.375 36.1626C121.005 35.3856 121.82 34.9971 122.819 34.9971C123.675 34.9971 124.344 35.1385 124.828 35.4214ZM131.959 43L131.417 41.3403H128.49L127.91 43H126.706L129.902 35.0239H130.187L133.152 43H131.959ZM129.994 37.0864L128.774 40.5508H131.111L129.994 37.0864ZM139.446 43L137.346 39.6216C137.106 39.6216 136.726 39.6037 136.207 39.5679V43H135.133V35.1313C135.172 35.1313 135.45 35.1188 135.965 35.0938C136.484 35.0651 136.862 35.0508 137.098 35.0508C138.989 35.0508 139.934 35.8027 139.934 37.3066C139.934 37.8008 139.782 38.2466 139.478 38.644C139.173 39.0379 138.812 39.2832 138.393 39.3799L140.676 43H139.446ZM136.207 36.0981V38.6548C136.465 38.6906 136.715 38.7085 136.959 38.7085C137.603 38.7085 138.072 38.6047 138.366 38.397C138.66 38.1893 138.806 37.8187 138.806 37.2852C138.806 36.8447 138.649 36.5278 138.334 36.3345C138.019 36.1411 137.521 36.0444 136.841 36.0444C136.733 36.0444 136.522 36.0623 136.207 36.0981ZM143.655 36.0981V38.2842H146.255V39.1973H143.655V42.0332H147.222V43H142.581V35.1313H147.281V36.0981H143.655ZM120.88 48.0981V50.2842H123.646V51.1973H120.88V55H119.806V47.1313H124.667V48.0981H120.88ZM126.309 50.9985C126.309 49.8599 126.594 48.9074 127.163 48.1411C127.736 47.3748 128.508 46.9917 129.478 46.9917C130.57 46.9917 131.406 47.3444 131.986 48.0498C132.57 48.7552 132.862 49.7381 132.862 50.9985C132.862 52.2912 132.57 53.3045 131.986 54.0386C131.403 54.769 130.566 55.1343 129.478 55.1343C128.486 55.1343 127.709 54.7476 127.147 53.9741C126.588 53.2007 126.309 52.2088 126.309 50.9985ZM127.437 50.9985C127.437 51.9009 127.614 52.6546 127.969 53.2598C128.327 53.8649 128.83 54.1675 129.478 54.1675C130.212 54.1675 130.771 53.89 131.154 53.335C131.54 52.7799 131.734 52.0011 131.734 50.9985C131.734 48.9718 130.982 47.9585 129.478 47.9585C128.812 47.9585 128.305 48.2306 127.958 48.7749C127.611 49.3192 127.437 50.0604 127.437 50.9985ZM139.564 55L137.464 51.6216C137.224 51.6216 136.844 51.6037 136.325 51.5679V55H135.251V47.1313C135.29 47.1313 135.568 47.1188 136.083 47.0938C136.603 47.0651 136.98 47.0508 137.217 47.0508C139.107 47.0508 140.053 47.8027 140.053 49.3066C140.053 49.8008 139.9 50.2466 139.596 50.644C139.292 51.0379 138.93 51.2832 138.511 51.3799L140.794 55H139.564ZM136.325 48.0981V50.6548C136.583 50.6906 136.833 50.7085 137.077 50.7085C137.721 50.7085 138.191 50.6047 138.484 50.397C138.778 50.1893 138.925 49.8187 138.925 49.2852C138.925 48.8447 138.767 48.5278 138.452 48.3345C138.137 48.1411 137.639 48.0444 136.959 48.0444C136.851 48.0444 136.64 48.0623 136.325 48.0981ZM120.88 63.9707V67H119.806V59.1313C120.618 59.0955 121.109 59.0776 121.277 59.0776C123.562 59.0776 124.704 59.8421 124.704 61.3711C124.704 63.14 123.694 64.0244 121.675 64.0244C121.553 64.0244 121.288 64.0065 120.88 63.9707ZM120.88 60.0981V63.0039C121.335 63.0397 121.575 63.0576 121.6 63.0576C122.932 63.0576 123.598 62.533 123.598 61.4839C123.598 60.5243 122.887 60.0444 121.465 60.0444C121.322 60.0444 121.127 60.0623 120.88 60.0981ZM128.114 60.0981V62.2842H130.713V63.1973H128.114V66.0332H131.68V67H127.039V59.1313H131.739V60.0981H128.114ZM133.661 62.9985C133.661 61.8599 133.946 60.9074 134.515 60.1411C135.088 59.3748 135.86 58.9917 136.83 58.9917C137.922 58.9917 138.758 59.3444 139.338 60.0498C139.922 60.7552 140.214 61.7381 140.214 62.9985C140.214 64.2912 139.922 65.3045 139.338 66.0386C138.755 66.769 137.918 67.1343 136.83 67.1343C135.838 67.1343 135.061 66.7476 134.499 65.9741C133.94 65.2007 133.661 64.2088 133.661 62.9985ZM134.789 62.9985C134.789 63.9009 134.966 64.6546 135.321 65.2598C135.679 65.8649 136.182 66.1675 136.83 66.1675C137.564 66.1675 138.123 65.89 138.506 65.335C138.892 64.7799 139.086 64.0011 139.086 62.9985C139.086 60.9718 138.334 59.9585 136.83 59.9585C136.164 59.9585 135.657 60.2306 135.31 60.7749C134.963 61.3192 134.789 62.0604 134.789 62.9985ZM143.623 63.9707V67H142.549V59.1313C143.362 59.0955 143.852 59.0776 144.021 59.0776C146.305 59.0776 147.447 59.8421 147.447 61.3711C147.447 63.14 146.438 64.0244 144.418 64.0244C144.296 64.0244 144.031 64.0065 143.623 63.9707ZM143.623 60.0981V63.0039C144.078 63.0397 144.318 63.0576 144.343 63.0576C145.675 63.0576 146.341 62.533 146.341 61.4839C146.341 60.5243 145.63 60.0444 144.209 60.0444C144.065 60.0444 143.87 60.0623 143.623 60.0981ZM149.783 67V59.1313H150.857V66.0332H154.413V67H149.783ZM157.532 60.0981V62.2842H160.132V63.1973H157.532V66.0332H161.099V67H156.458V59.1313H161.158V60.0981H157.532ZM120.88 75.9707V79H119.806V71.1313C120.618 71.0955 121.109 71.0776 121.277 71.0776C123.562 71.0776 124.704 71.8421 124.704 73.3711C124.704 75.14 123.694 76.0244 121.675 76.0244C121.553 76.0244 121.288 76.0065 120.88 75.9707ZM120.88 72.0981V75.0039C121.335 75.0397 121.575 75.0576 121.6 75.0576C122.932 75.0576 123.598 74.533 123.598 73.4839C123.598 72.5243 122.887 72.0444 121.465 72.0444C121.322 72.0444 121.127 72.0623 120.88 72.0981ZM127.039 79V71.1313H128.114V78.0332H131.669V79H127.039ZM138.183 79L137.641 77.3403H134.714L134.134 79H132.93L136.126 71.0239H136.411L139.376 79H138.183ZM136.218 73.0864L134.998 76.5508H137.335L136.218 73.0864ZM146.389 79.1074L142.323 73.355V79H141.303V71.1313H141.733L145.691 76.5723V71.1313H146.712V79.1074H146.389ZM150.503 72.0981V74.2842H153.102V75.1973H150.503V78.0332H154.069V79H149.428V71.1313H154.128V72.0981H150.503ZM159.294 72.0981V79H158.22V72.0981H155.717V71.1313H161.91V72.0981H159.294ZM120.88 84.0981V86.2842H123.646V87.1973H120.88V91H119.806V83.1313H124.667V84.0981H120.88ZM126.685 83.1313H127.759V88.5186C127.759 88.9984 127.911 89.394 128.216 89.7056C128.52 90.0135 128.923 90.1675 129.424 90.1675C129.954 90.1675 130.371 90.0171 130.676 89.7163C130.98 89.4155 131.132 89.0073 131.132 88.4917V83.1313H132.206V88.6045C132.206 89.3994 131.958 90.0207 131.46 90.4683C130.966 90.9123 130.291 91.1343 129.435 91.1343C128.554 91.1343 127.876 90.9159 127.399 90.479C126.923 90.0422 126.685 89.4155 126.685 88.5991V83.1313ZM137.786 84.0981V91H136.712V84.0981H134.209V83.1313H140.402V84.0981H137.786ZM142.409 83.1313H143.484V88.5186C143.484 88.9984 143.636 89.394 143.94 89.7056C144.244 90.0135 144.647 90.1675 145.149 90.1675C145.679 90.1675 146.096 90.0171 146.4 89.7163C146.704 89.4155 146.857 89.0073 146.857 88.4917V83.1313H147.931V88.6045C147.931 89.3994 147.682 90.0207 147.184 90.4683C146.69 90.9123 146.015 91.1343 145.159 91.1343C144.279 91.1343 143.6 90.9159 143.124 90.479C142.647 90.0422 142.409 89.4155 142.409 88.5991V83.1313ZM155.009 91L152.909 87.6216C152.669 87.6216 152.289 87.6037 151.77 87.5679V91H150.696V83.1313C150.735 83.1313 151.013 83.1188 151.528 83.0938C152.048 83.0651 152.425 83.0508 152.662 83.0508C154.552 83.0508 155.498 83.8027 155.498 85.3066C155.498 85.8008 155.345 86.2466 155.041 86.644C154.737 87.0379 154.375 87.2832 153.956 87.3799L156.239 91H155.009ZM151.77 84.0981V86.6548C152.028 86.6906 152.279 86.7085 152.522 86.7085C153.167 86.7085 153.636 86.6047 153.929 86.397C154.223 86.1893 154.37 85.8187 154.37 85.2852C154.37 84.8447 154.212 84.5278 153.897 84.3345C153.582 84.1411 153.084 84.0444 152.404 84.0444C152.296 84.0444 152.085 84.0623 151.77 84.0981ZM159.219 84.0981V86.2842H161.818V87.1973H159.219V90.0332H162.785V91H158.145V83.1313H162.844V84.0981H159.219Z" fill="#E8E8E8"/>
</svg>
