<svg width="39" height="14" viewBox="0 0 39 14" fill="none" xmlns="http://www.w3.org/2000/svg">
    <path d="M11.6247 5.23579C11.6247 9.16743 8.86146 13.1566 4.80234 13.1566C1.98192 13.1566 0 10.9319 0 7.82492C0 3.64396 3.22062 0 6.8986 0C9.62373 0 11.6247 2.1672 11.6247 5.23579ZM2.28683 7.69067C2.28683 10.2798 3.4493 12.1018 5.06913 12.1018C7.83238 12.1018 9.33788 8.59207 9.33788 5.42758C9.33788 2.81927 8.23258 1.05483 6.66991 1.05483C4.26874 1.05483 2.28683 4.08507 2.28683 7.69067Z" fill="#090909"/>
    <path d="M21.1437 7.57628L20.267 11.0284C20.1527 11.4887 20.3052 11.7381 20.6482 11.8148L21.3342 11.9682L21.258 12.6586L18.1327 13.023C18.0183 12.4093 18.0564 11.7572 18.2851 10.8558L19.1427 7.49956C19.4285 6.36802 19.1999 5.63922 18.4948 5.63922C17.0083 5.63922 15.4838 9.07222 14.6834 12.8888L12.6443 12.9655L14.0545 6.23376C14.1498 5.77348 14.0354 5.50497 13.6734 5.42826L12.9587 5.27483L13.035 4.58439L16.3509 4.22C16.1031 5.42826 15.8173 6.44473 15.1312 8.30507C16.1984 5.71594 17.3609 4.18164 19.1522 4.18164C20.8578 4.18164 21.6391 5.62005 21.1437 7.57628Z" fill="#090909"/>
    <path d="M30.6721 4.60357L30.1957 6.78995H29.3953C29.3 5.71594 28.938 5.14058 28.1757 5.14058C26.5749 5.14058 25.1456 7.32695 25.1456 9.41744C25.1456 10.8175 25.8126 11.6997 26.8989 11.6997C27.7374 11.6997 28.5187 11.3353 29.281 10.7024L29.6812 11.297C28.8998 12.3134 27.7183 13.0998 26.27 13.0998C24.2881 13.0998 22.9731 11.7189 22.9731 9.68594C22.9731 6.71323 25.5268 4.18164 28.4806 4.18164C29.2238 4.18164 29.9289 4.31589 30.6721 4.60357Z" fill="#090909"/>
    <path d="M33.4528 8.87848C33.4337 9.10862 33.4147 9.33877 33.4147 9.56891C33.4147 10.7964 34.0245 11.6978 35.1298 11.6978C36.0636 11.6978 36.883 11.3334 37.7025 10.7005L38.1217 11.3142C37.0545 12.4649 35.854 13.0978 34.4819 13.0978C32.519 13.0978 31.2422 11.7553 31.2422 9.7607C31.2422 6.63457 33.853 4.17969 36.6543 4.17969C37.9693 4.17969 38.9983 4.75505 38.9983 5.96331C38.9983 7.93872 36.5972 8.82094 33.4528 8.87848ZM33.6243 8.03461C35.1298 7.93872 37.0355 7.51679 37.0355 6.02085C37.0355 5.46466 36.7496 5.13862 36.2923 5.13862C35.0345 5.13862 34.0436 6.50031 33.6243 8.03461Z" fill="#090909"/>
</svg>
