<?xml version="1.0" encoding="utf-8"?>
<!-- Made in Bigly. www.bigly.studio  -->
<!DOCTYPE svg PUBLIC "-//W3C//DTD SVG 1.1//EN" "http://www.w3.org/Graphics/SVG/1.1/DTD/svg11.dtd">


<svg version="1.1" xmlns="http://www.w3.org/2000/svg" xmlns:xlink="http://www.w3.org/1999/xlink">

    <!-- nd-logo -->

    <symbol viewBox="0 0 80 80" id="nd-logo">
        <path d="M30.392 64.2412H31.8393V65.809C31.4372 65.8894 31.0352 65.9296 30.593 65.9296C29.789 65.9296 29.186 65.7286 28.784 65.3668C28.382 65.005 28.181 64.4422 28.181 63.7185C28.181 63.0351 28.382 62.4723 28.8242 62.0703C29.2664 61.6683 29.8694 61.4673 30.6332 61.4673C31.1558 61.4673 31.7187 61.5879 32.2815 61.7889L32.3619 61.8291L32.7237 61.1055L32.6433 61.0653C32.0403 60.8241 31.3569 60.7437 30.6734 60.7437C29.99 60.7437 29.3468 60.8643 28.8644 61.1055C28.3418 61.3467 27.9398 61.7085 27.6584 62.1507C27.377 62.5929 27.2563 63.1557 27.2563 63.7587C27.2563 64.6834 27.5378 65.4472 28.1006 65.9698C28.6634 66.4924 29.4674 66.7738 30.4724 66.7738C30.9548 66.7738 31.3568 66.7336 31.7187 66.6934C32.0805 66.6532 32.4423 66.5728 32.7639 66.4924H32.8443V63.5979H30.4724V64.2412H30.392Z" />
        <path d="M41.6483 62.4723C41.6483 61.9095 41.4473 61.4673 41.0453 61.1859C40.6433 60.9045 40.0403 60.7839 39.2362 60.7839H37.3468V66.613H38.2714V64.2813H39.4775L41.0453 66.613H42.1709L40.3619 64.0401C41.2061 63.7587 41.6483 63.2361 41.6483 62.4723ZM40.6835 62.5125C40.6835 62.8341 40.5629 63.1155 40.3619 63.2763C40.1207 63.4371 39.7589 63.5175 39.2362 63.5175H38.2714V61.5477H39.1558C39.6785 61.5477 40.0805 61.6281 40.3217 61.7889C40.5629 61.9095 40.6835 62.1507 40.6835 62.5125Z" />
        <path d="M48.8845 60.7035C47.9197 60.7035 47.1558 60.9849 46.593 61.5075C46.0704 62.0301 45.789 62.7537 45.789 63.7185C45.789 64.6834 46.0704 65.407 46.593 65.9296C47.1156 66.4522 47.8795 66.7336 48.8845 66.7336C49.8493 66.7336 50.6131 66.4522 51.1357 65.9296C51.6584 65.407 51.9398 64.6432 51.9398 63.7185C51.9398 62.7939 51.6584 62.0703 51.1357 61.5075C50.6131 60.9849 49.8493 60.7035 48.8845 60.7035ZM48.8845 65.9296C48.2011 65.9296 47.6785 65.7286 47.3166 65.3668C46.9548 65.005 46.794 64.4422 46.794 63.6783C46.794 62.9547 46.9548 62.3919 47.3166 62.0301C47.6785 61.6683 48.2011 61.4673 48.8845 61.4673C49.5679 61.4673 50.0905 61.6683 50.4523 62.0301C50.8141 62.3919 50.9749 62.9547 50.9749 63.6783C50.9749 64.402 50.8141 64.9648 50.4523 65.3668C50.0905 65.7286 49.5679 65.9296 48.8845 65.9296Z" />
        <path d="M60.5428 64.5628C60.5428 65.005 60.4222 65.3668 60.1408 65.5678C59.8594 65.809 59.4574 65.9296 58.9347 65.9296C58.3719 65.9296 57.9699 65.809 57.6885 65.5678C57.4071 65.3266 57.2865 65.005 57.2865 64.5628V60.7839H56.3619V64.5226C56.3619 65.206 56.6031 65.7286 57.0453 66.1306C57.4875 66.5326 58.1307 66.6934 58.9347 66.6934C59.7388 66.6934 60.382 66.4924 60.8242 66.1306C61.3066 65.7286 61.5076 65.206 61.5076 64.5628V60.8241H60.583V64.5628H60.5428Z" />
        <path d="M67.9398 60.7839H66.1709V66.613H67.0955V64.402H67.779C68.6232 64.402 69.3066 64.2411 69.7488 63.9195C70.2312 63.5979 70.4724 63.1155 70.4724 62.5125C70.4724 61.3869 69.6282 60.7839 67.9398 60.7839ZM69.5076 62.5527C69.5076 62.9547 69.387 63.1959 69.1056 63.3969C68.8242 63.5577 68.3418 63.6783 67.6986 63.6783H67.0955V61.5477H67.8594C68.4222 61.5477 68.8644 61.6281 69.1056 61.7889C69.387 61.9497 69.5076 62.1909 69.5076 62.5527Z" />
        <path d="M70.432 57.6081V34.0503H63.3968V43.3367H63.3566C62.1506 41.8091 60.1405 41.0854 57.2863 41.0854C53.3466 41.0854 49.6883 43.0553 48.8038 47.4372C47.8792 43.0553 44.2209 41.0854 40.3214 41.0854C37.4672 41.0854 35.4571 41.8091 34.2511 43.3367H34.2109V41.6081H27.3767V57.6081H34.2109V49.6483C34.2109 47.397 35.3767 45.99 38.0702 45.99C40.6028 45.99 41.8893 47.598 41.8893 49.6483V57.6081H49.0853V52.7839C50.2913 56.5628 53.7084 58.2513 57.3667 58.2513C60.4621 58.2513 62.432 57.4473 63.6782 55.8794H63.7184V57.5679H70.432V57.6081ZM59.5777 53.3066C56.844 53.3066 55.7184 51.7789 55.7184 49.6483C55.7184 47.598 57.0049 45.99 59.5375 45.99C62.2712 45.99 63.3968 47.3568 63.3968 49.6483C63.3968 51.9397 62.2712 53.3066 59.5777 53.3066Z" />
        <path d="M79.8794 79.799H0.120605V0.0402508H79.8794V79.799ZM2.45226 77.4674H77.5879V2.33171H2.45226V77.4674Z" />
    </symbol>

    <!--  home-icon  -->

    <symbol viewBox="0 0 22 23" id="home-icon">
        <path d="M21 20V12.174C21.0001 11.6295 20.889 11.0908 20.6735 10.5907C20.458 10.0907 20.1428 9.63992 19.747 9.266L12.374 2.298C12.0027 1.94693 11.511 1.75132 11 1.75132C10.489 1.75132 9.99734 1.94693 9.626 2.298L2.253 9.266C1.85722 9.63992 1.54195 10.0907 1.3265 10.5907C1.11104 11.0908 0.999942 11.6295 1 12.174V20C1 20.5304 1.21071 21.0391 1.58579 21.4142C1.96086 21.7893 2.46957 22 3 22H19C19.5304 22 20.0391 21.7893 20.4142 21.4142C20.7893 21.0391 21 20.5304 21 20Z" fill="none" stroke-width="2" stroke-linecap="round" stroke-linejoin="round"/>
    </symbol>

    <!-- find-out-more -->

    <symbol viewBox="0 0 295 295" id="find-out-more">
        <g clip-path="url(#a)" fill="#E8E8E8"><path d="M156.933 13.174 158.031.982l7.555.68-.204 2.267-5.066-.456-.255 2.833 4.465.403-.198 2.197-4.465-.402-.44 4.894-2.49-.224ZM170.347 14.749 172.46 2.69l2.461.431-2.111 12.057-2.463-.43ZM179.223 16.426l3.275-11.794 2.243.623 3.808 10.577-.42-.1a6.08 6.08 0 0 1 .151-1.282c.108-.542.34-1.462.695-2.76.353-1.296.803-2.925 1.348-4.885l2.342.65-3.276 11.795-2.242-.623-3.832-10.494.432.12a5.714 5.714 0 0 1-.154 1.263c-.111.53-.34 1.439-.686 2.727-.345 1.287-.787 2.9-1.325 4.838l-2.359-.655ZM195.492 21.382l4.719-11.295 3.897 1.63a6.621 6.621 0 0 1 2.761 2.021 5.398 5.398 0 0 1 1.142 2.859 6.942 6.942 0 0 1-2.406 5.759 5.4 5.4 0 0 1-2.836 1.198 6.638 6.638 0 0 1-3.379-.543l-3.898-1.629Zm4.769-.455a4.218 4.218 0 0 0 1.971.357 3.025 3.025 0 0 0 1.703-.7 5.102 5.102 0 0 0 1.642-3.93 3.031 3.031 0 0 0-.7-1.702 4.21 4.21 0 0 0-1.639-1.153l-1.591-.664-2.978 7.127 1.592.665ZM222.048 35.182a6.378 6.378 0 0 1-2.24-2.444 5.819 5.819 0 0 1-.628-3.107 6.838 6.838 0 0 1 3.553-5.4 5.838 5.838 0 0 1 3.102-.654 6.788 6.788 0 0 1 5.372 3.535c.492.958.709 2.033.629 3.107a6.861 6.861 0 0 1-3.554 5.4c-.954.5-2.028.726-3.102.653a6.378 6.378 0 0 1-3.132-1.09Zm1.289-1.96c.566.387 1.23.602 1.914.621a3.746 3.746 0 0 0 1.907-.469 4.27 4.27 0 0 0 2.171-3.298 3.752 3.752 0 0 0-.325-1.937 3.784 3.784 0 0 0-3.24-2.132 3.74 3.74 0 0 0-1.908.469 4.272 4.272 0 0 0-2.17 3.298 3.739 3.739 0 0 0 .325 1.936 3.57 3.57 0 0 0 1.326 1.513ZM235.799 45.544a5.612 5.612 0 0 1-1.656-2.252 4.232 4.232 0 0 1-.145-2.556 6.35 6.35 0 0 1 1.433-2.621l4.571-5.325 1.896 1.63-4.615 5.375c-.39.426-.682.932-.854 1.483-.135.45-.127.93.025 1.373a2.986 2.986 0 0 0 2.113 1.815c.46.078.933.012 1.355-.188a3.963 3.963 0 0 0 1.337-1.068l4.616-5.376 1.909 1.64-4.571 5.324a6.35 6.35 0 0 1-2.374 1.812 4.24 4.24 0 0 1-2.55.243 5.652 5.652 0 0 1-2.49-1.31ZM246.181 55.201l7.322-6.785-2.179-2.352 1.656-1.535 6.059 6.537-1.657 1.536-2.18-2.353-7.321 6.786-1.7-1.834ZM258.601 70.193l10.328-6.57 1.268 1.994-2.857 7.232-.74-1.164 7.77.492 1.259 1.978-10.328 6.57-1.342-2.109a560.083 560.083 0 0 1 4.184-2.641c1.131-.706 1.94-1.19 2.428-1.452.358-.208.74-.373 1.138-.49l.167.262-7.447-.433 2.779-6.875.156.248a4.17 4.17 0 0 1-.887.82c-.435.324-1.191.832-2.269 1.524-1.078.693-2.408 1.543-3.988 2.548l-.132.083c-.048.031-.097.061-.145.093l-1.342-2.11ZM270.568 91.654a6.39 6.39 0 0 1-.604-3.26 5.829 5.829 0 0 1 1.115-2.968 6.85 6.85 0 0 1 5.876-2.694 5.838 5.838 0 0 1 2.977 1.09 6.794 6.794 0 0 1 2.68 5.846 5.844 5.844 0 0 1-1.115 2.968 6.848 6.848 0 0 1-5.876 2.695 5.83 5.83 0 0 1-2.976-1.092 6.375 6.375 0 0 1-2.077-2.585Zm2.131-.977a3.577 3.577 0 0 0 1.295 1.54c.556.367 1.2.58 1.865.615a4.283 4.283 0 0 0 3.589-1.646 3.74 3.74 0 0 0 .751-1.814 3.788 3.788 0 0 0-1.616-3.527 3.752 3.752 0 0 0-1.866-.614 4.277 4.277 0 0 0-3.589 1.645 3.756 3.756 0 0 0-.752 1.815c-.084.68.028 1.368.323 1.986ZM275.366 102.856l11.674-3.68 1.509 4.785a5.45 5.45 0 0 1 .264 2.33 3.377 3.377 0 0 1-.781 1.819 3.78 3.78 0 0 1-1.782 1.113 3.668 3.668 0 0 1-2.246.076 3.592 3.592 0 0 1-1.645-1.064 4.486 4.486 0 0 1-.925-1.615l-.327-1.036.809.215a6.779 6.779 0 0 1-.452.974 40.31 40.31 0 0 1-1.152 1.909c-.554.88-1.243 1.98-2.068 3.301l-.918-2.911 4.599-6.855 1.048 3.322c.102.36.287.692.54.967.214.23.491.392.797.464.324.067.661.045.974-.063.307-.09.584-.262.802-.497.208-.233.34-.524.378-.834a2.496 2.496 0 0 0-.12-1.101l-1.037-3.288 1.384.72-5.41 1.706-.073-.175a8.708 8.708 0 0 1-1.524.642c-.744.259-1.933.646-3.566 1.161l-.752-2.385ZM279.622 117.676l12.007-2.386.487 2.452-12.006 2.386-.488-2.452Zm.034.17 2.215-.441 1.502 7.559-2.215.44-1.502-7.558Zm4.971-.988 2.165-.431 1.318 6.629-2.165.43-1.318-6.628Zm4.82-.958 2.215-.441 1.502 7.559-2.215.44-1.502-7.558ZM286.612 141.4c-.02-.351.057-.7.223-1.011a2.03 2.03 0 0 1 .683-.746 1.973 1.973 0 0 1 2.203.042 1.966 1.966 0 0 1 .835 1.535c.016.345-.058.689-.214.997a1.891 1.891 0 0 1-.682.764 1.99 1.99 0 0 1-1.989.09 2.02 2.02 0 0 1-.748-.692 1.936 1.936 0 0 1-.311-.979ZM282.553 158.365l12.175 1.271-.787 7.545-2.264-.236.528-5.059-2.83-.295-.465 4.458-2.195-.229.465-4.458-4.887-.51.26-2.487ZM280.783 171.781l12.026 2.287-.467 2.456-12.026-2.287.467-2.456ZM278.976 180.63l11.746 3.447-.656 2.234-10.631 3.653.105-.418c.432.01.861.067 1.28.169.541.116 1.457.361 2.749.735 1.292.373 2.914.846 4.866 1.419l-.684 2.333-11.746-3.447.656-2.234 10.548-3.678-.126.43a5.7 5.7 0 0 1-1.261-.172c-.528-.12-1.434-.362-2.716-.726-1.283-.364-2.89-.829-4.819-1.395l.689-2.35ZM273.793 196.803l11.227 4.881-1.685 3.874a6.62 6.62 0 0 1-2.062 2.731 5.398 5.398 0 0 1-2.874 1.101 6.941 6.941 0 0 1-5.724-2.488 5.391 5.391 0 0 1-1.157-2.854 6.632 6.632 0 0 1 .592-3.371l1.683-3.874Zm.388 4.775a4.202 4.202 0 0 0-.385 1.966c.041.627.277 1.226.674 1.713a5.095 5.095 0 0 0 3.906 1.698 3.036 3.036 0 0 0 1.712-.674 4.22 4.22 0 0 0 1.176-1.624l.687-1.581-7.083-3.079-.687 1.581ZM259.598 223.185a6.382 6.382 0 0 1 2.476-2.206 5.828 5.828 0 0 1 3.116-.583 6.858 6.858 0 0 1 5.35 3.631c.485.961.695 2.038.607 3.111a6.786 6.786 0 0 1-3.612 5.32 5.827 5.827 0 0 1-3.116.584 6.864 6.864 0 0 1-5.349-3.631 5.85 5.85 0 0 1-.608-3.112 6.388 6.388 0 0 1 1.136-3.114Zm1.94 1.316a3.58 3.58 0 0 0-.647 1.905 3.752 3.752 0 0 0 .441 1.914 4.276 4.276 0 0 0 3.266 2.218 3.753 3.753 0 0 0 1.942-.297 3.79 3.79 0 0 0 2.179-3.21 3.764 3.764 0 0 0-.441-1.914 4.269 4.269 0 0 0-3.267-2.217 3.743 3.743 0 0 0-1.942.297 3.578 3.578 0 0 0-1.531 1.304ZM249.045 236.78a5.596 5.596 0 0 1 2.276-1.624 4.234 4.234 0 0 1 2.558-.108c.971.276 1.863.78 2.6 1.47l5.258 4.648-1.656 1.872-5.309-4.693a3.967 3.967 0 0 0-1.47-.875 2.257 2.257 0 0 0-1.375.006 2.993 2.993 0 0 0-1.844 2.086c-.084.459-.025.933.169 1.357a3.95 3.95 0 0 0 1.049 1.352l5.309 4.694-1.667 1.886-5.258-4.648a6.344 6.344 0 0 1-1.778-2.4 4.24 4.24 0 0 1-.206-2.552 5.634 5.634 0 0 1 1.344-2.471ZM239.237 247.021l6.679 7.419 2.384-2.146 1.511 1.678-6.624 5.964-1.511-1.678 2.383-2.146-6.68-7.418 1.858-1.673ZM224.083 259.216l6.422 10.421-2.012 1.24-7.19-2.962 1.174-.723-.603 7.763-1.997 1.23-6.421-10.421 2.129-1.312c1.03 1.673 1.89 3.08 2.58 4.222.69 1.141 1.163 1.957 1.417 2.448.204.361.363.746.474 1.146l-.265.163.54-7.44 6.835 2.876-.25.154a4.246 4.246 0 0 1-.808-.9c-.317-.439-.814-1.203-1.492-2.291a1126.24 1126.24 0 0 1-2.49-4.024l-.081-.132-.091-.147 2.129-1.311ZM202.438 270.879a6.38 6.38 0 0 1 3.269-.556 5.833 5.833 0 0 1 2.951 1.157 6.859 6.859 0 0 1 2.609 5.916 5.84 5.84 0 0 1-1.135 2.96 6.785 6.785 0 0 1-5.884 2.595 5.838 5.838 0 0 1-2.951-1.158 6.858 6.858 0 0 1-2.608-5.915 5.838 5.838 0 0 1 1.134-2.96 6.384 6.384 0 0 1 2.615-2.039Zm.946 2.146a3.577 3.577 0 0 0-1.558 1.271 3.742 3.742 0 0 0-.642 1.857 4.284 4.284 0 0 0 1.593 3.613 3.765 3.765 0 0 0 1.804.777 3.785 3.785 0 0 0 3.55-1.565 3.76 3.76 0 0 0 .641-1.857 4.284 4.284 0 0 0-1.594-3.612 3.744 3.744 0 0 0-1.803-.778 3.57 3.57 0 0 0-1.991.294ZM191.193 275.506l3.513 11.726-4.806 1.44a5.474 5.474 0 0 1-2.333.231 3.38 3.38 0 0 1-1.808-.809 3.765 3.765 0 0 1-1.088-1.798 3.649 3.649 0 0 1-.043-2.245 3.598 3.598 0 0 1 1.087-1.631 4.479 4.479 0 0 1 1.628-.901l1.041-.312-.227.806a6.679 6.679 0 0 1-.968-.466 40.394 40.394 0 0 1-1.892-1.179 853.643 853.643 0 0 0-3.271-2.116l2.924-.875 6.789 4.697-3.337 1a2.383 2.383 0 0 0-.975.526c-.233.21-.398.485-.474.789a1.85 1.85 0 0 0 .048.976c.086.308.254.588.486.808.23.211.518.347.828.391.37.048.747.012 1.102-.105l3.303-.989-.74 1.373-1.628-5.434.177-.071a8.53 8.53 0 0 1-.621-1.533c-.248-.747-.618-1.941-1.11-3.581l2.395-.718ZM176.144 279.58l.409 2.222-7.58 1.394-.409-2.222 7.58-1.394Zm1.805 9.818.409 2.221-7.579 1.394-.409-2.221 7.579-1.394Zm-.888-4.832.399 2.17-6.647 1.222-.399-2.17 6.647-1.222Zm-.747-5.017 2.213 12.039-2.458.452-2.215-12.039 2.46-.452ZM152.465 286.202c.351-.016.7.066 1.007.236a1.985 1.985 0 0 1 .986 2.191 1.96 1.96 0 0 1-.89 1.23 2.013 2.013 0 0 1-1.973.06 1.906 1.906 0 0 1-.754-.693 1.925 1.925 0 0 1-.297-.983c-.016-.351.066-.7.236-1.007.168-.302.409-.556.702-.738.295-.186.635-.288.983-.296ZM135.561 281.902l-1.446 12.155-7.533-.896.269-2.26 5.05.601.336-2.825-4.451-.529.26-2.191 4.451.529.581-4.88 2.483.296ZM122.201 279.944l-2.46 11.991-2.448-.501 2.458-11.992 2.45.502ZM113.375 278.011l-3.615 11.695-2.224-.687-3.501-10.683.417.111a6.057 6.057 0 0 1-.187 1.277c-.125.54-.383 1.452-.774 2.738-.392 1.287-.888 2.902-1.489 4.846l-2.323-.718 3.616-11.695 2.223.687 3.527 10.6-.429-.132c.017-.425.081-.847.191-1.258.126-.527.381-1.428.764-2.706.383-1.276.871-2.876 1.465-4.798l2.339.723ZM97.252 272.584l-5.043 11.154-3.848-1.74a6.638 6.638 0 0 1-2.702-2.101 5.401 5.401 0 0 1-1.058-2.891 6.932 6.932 0 0 1 2.571-5.687 5.398 5.398 0 0 1 2.87-1.115 6.635 6.635 0 0 1 3.362.64l3.848 1.74Zm-4.779.319a4.207 4.207 0 0 0-1.96-.414 3.022 3.022 0 0 0-1.723.649 5.099 5.099 0 0 0-1.754 3.881c.033.627.26 1.229.65 1.722.43.523.981.935 1.605 1.199l1.571.71 3.182-7.038-1.57-.709ZM71.097 258.021a6.392 6.392 0 0 1 2.17 2.508c.464.972.65 2.053.538 3.124a6.85 6.85 0 0 1-3.707 5.296 5.831 5.831 0 0 1-3.119.563 6.782 6.782 0 0 1-5.269-3.687 5.84 5.84 0 0 1-.539-3.124 6.854 6.854 0 0 1 3.708-5.296 5.812 5.812 0 0 1 3.12-.563 6.382 6.382 0 0 1 3.098 1.179Zm-1.345 1.922a3.565 3.565 0 0 0-1.896-.675 3.75 3.75 0 0 0-1.919.413 4.284 4.284 0 0 0-2.264 3.235 3.753 3.753 0 0 0 .268 1.946 3.788 3.788 0 0 0 3.179 2.224 3.752 3.752 0 0 0 1.92-.413 4.283 4.283 0 0 0 2.264-3.235 3.754 3.754 0 0 0-.269-1.946 3.576 3.576 0 0 0-1.283-1.549ZM57.658 247.277a5.6 5.6 0 0 1 1.591 2.299c.287.825.312 1.718.073 2.559a6.361 6.361 0 0 1-1.508 2.579l-4.72 5.191-1.85-1.682 4.767-5.242a3.95 3.95 0 0 0 .895-1.458c.149-.445.154-.925.014-1.373a2.982 2.982 0 0 0-2.059-1.874 2.276 2.276 0 0 0-1.36.149 3.96 3.96 0 0 0-1.367 1.03l-4.768 5.241-1.862-1.693 4.722-5.191a6.364 6.364 0 0 1 2.425-1.745 4.244 4.244 0 0 1 2.555-.169c.92.245 1.764.72 2.452 1.379ZM47.556 237.329l-7.512 6.574 2.112 2.413-1.7 1.488-5.87-6.708 1.7-1.487 2.111 2.413 7.512-6.575 1.647 1.882ZM35.572 221.994l-10.512 6.271-1.21-2.028 3.064-7.148.706 1.184-7.754-.714-1.201-2.013 10.512-6.273 1.282 2.148a578.36 578.36 0 0 1-4.26 2.52c-1.15.673-1.972 1.134-2.467 1.382a5.09 5.09 0 0 1-1.153.456l-.159-.265 7.432.645-2.974 6.793-.15-.252c.264-.307.57-.575.91-.795.445-.311 1.215-.797 2.313-1.458a1099.376 1099.376 0 0 1 4.34-2.6l1.281 2.147ZM24.213 200.167a6.367 6.367 0 0 1 .508 3.276 5.826 5.826 0 0 1-1.2 2.934 6.85 6.85 0 0 1-5.952 2.523 5.826 5.826 0 0 1-2.943-1.178 6.776 6.776 0 0 1-2.51-5.92 5.84 5.84 0 0 1 1.2-2.934 6.85 6.85 0 0 1 5.953-2.523c1.071.113 2.09.521 2.943 1.178a6.373 6.373 0 0 1 2 2.644Zm-2.159.915a3.585 3.585 0 0 0-1.25-1.578 3.75 3.75 0 0 0-1.846-.668 4.28 4.28 0 0 0-3.635 1.541 3.743 3.743 0 0 0-.804 1.792 3.787 3.787 0 0 0 1.514 3.572 3.751 3.751 0 0 0 1.847.668 4.281 4.281 0 0 0 3.635-1.541c.422-.515.7-1.133.804-1.792a3.582 3.582 0 0 0-.265-1.994ZM19.751 188.858l-11.776 3.341-1.37-4.826a5.474 5.474 0 0 1-.196-2.336 3.382 3.382 0 0 1 .834-1.797 3.765 3.765 0 0 1 1.813-1.06 3.652 3.652 0 0 1 2.247-.011c.63.213 1.19.598 1.614 1.11a4.5 4.5 0 0 1 .879 1.641l.296 1.045-.803-.238c.134-.333.295-.654.48-.961.225-.386.627-1.011 1.207-1.874.58-.864 1.3-1.944 2.163-3.24l.833 2.936-4.796 6.72-.95-3.351a2.403 2.403 0 0 0-.513-.983 1.586 1.586 0 0 0-.782-.486 1.847 1.847 0 0 0-.976.035 1.77 1.77 0 0 0-.816.474 1.534 1.534 0 0 0-.402.821c-.054.37-.024.748.088 1.104l.942 3.317-1.363-.76 5.457-1.548.068.177a8.531 8.531 0 0 1 1.542-.598c.75-.238 1.95-.59 3.598-1.057l.682 2.405ZM6.052 175.41l-2.227.376-1.284-7.599 2.227-.376 1.284 7.599Zm9.872-1.493-12.07 2.039-.417-2.465 12.07-2.039.417 2.465Zm-5.027.675-2.176.367-1.126-6.664 2.177-.367 1.125 6.664Zm4.998-.845-2.227.377-1.283-7.6 2.227-.376 1.283 7.599ZM9.617 150.001c.01.351-.077.699-.251 1.004a1.974 1.974 0 0 1-3.697-.935 2.011 2.011 0 0 1 .243-.991c.162-.308.405-.565.702-.745a1.986 1.986 0 0 1 1.991-.033c.3.172.55.417.728.713.182.297.28.638.284.987ZM14.153 133.172 2.02 131.554l1.002-7.519 2.256.3-.673 5.041 2.82.376.593-4.443 2.187.291-.592 4.444 4.87.649-.33 2.479ZM16.306 119.814l-11.954-2.632.537-2.442 11.955 2.632-.538 2.442ZM18.368 111.016l-11.641-3.785.72-2.213 10.731-3.346-.117.415a6.041 6.041 0 0 1-1.274-.205c-.537-.132-1.446-.404-2.726-.815-1.281-.41-2.889-.929-4.824-1.558l.752-2.312 11.64 3.784-.719 2.214-10.65 3.372.139-.426c.425.022.846.093 1.256.209.524.134 1.422.401 2.693.803 1.272.401 2.864.913 4.777 1.534l-.757 2.329ZM24.028 94.97l-11.08-5.203 1.796-3.823a6.641 6.641 0 0 1 2.14-2.671 5.404 5.404 0 0 1 2.906-1.016 6.938 6.938 0 0 1 5.65 2.653 5.397 5.397 0 0 1 1.072 2.885 6.631 6.631 0 0 1-.688 3.353l-1.796 3.823Zm-.248-4.782a4.217 4.217 0 0 0 .44-1.954 3.026 3.026 0 0 0-.624-1.732 5.1 5.1 0 0 0-3.854-1.81 3.025 3.025 0 0 0-1.732.624 4.233 4.233 0 0 0-1.222 1.588l-.733 1.56 6.992 3.284.733-1.56ZM38.957 69.043a6.375 6.375 0 0 1-2.54 2.134 5.818 5.818 0 0 1-3.13.494 6.852 6.852 0 0 1-5.243-3.782 5.827 5.827 0 0 1-.519-3.127 6.782 6.782 0 0 1 3.762-5.215 5.828 5.828 0 0 1 3.13-.494 6.852 6.852 0 0 1 5.245 3.782c.458.974.637 2.057.518 3.127a6.383 6.383 0 0 1-1.223 3.081Zm-1.902-1.372c.41-.548.653-1.203.7-1.885a3.751 3.751 0 0 0-.385-1.926 4.275 4.275 0 0 0-3.202-2.31 3.753 3.753 0 0 0-1.95.242 3.788 3.788 0 0 0-2.269 3.146c-.045.665.089 1.33.386 1.926a4.276 4.276 0 0 0 3.202 2.31 3.75 3.75 0 0 0 1.95-.242 3.58 3.58 0 0 0 1.568-1.26ZM49.904 55.744a5.6 5.6 0 0 1-2.32 1.558 4.24 4.24 0 0 1-2.561.036 6.352 6.352 0 0 1-2.557-1.544l-5.123-4.796 1.708-1.825 5.173 4.843c.409.407.902.72 1.445.916.443.154.923.166 1.373.034a2.981 2.981 0 0 0 1.903-2.033 2.267 2.267 0 0 0-.13-1.362c-.231-.528-.576-1-1.009-1.381l-5.173-4.843 1.72-1.838 5.123 4.796a6.372 6.372 0 0 1 1.71 2.45c.306.819.352 1.712.132 2.558a5.646 5.646 0 0 1-1.414 2.431ZM59.997 45.785l-6.465-7.606-2.443 2.076-1.463-1.72 6.791-5.773 1.463 1.721-2.443 2.076 6.465 7.606-1.905 1.62ZM75.492 34.031l-6.12-10.602 2.046-1.181 7.103 3.166-1.195.69.825-7.743 2.031-1.172 6.12 10.6-2.165 1.251a584.864 584.864 0 0 1-2.459-4.294c-.656-1.16-1.105-1.99-1.346-2.487a5.148 5.148 0 0 1-.44-1.16l.268-.155-.752 7.422-6.75-3.072.254-.146c.304.269.567.58.782.923.305.447.78 1.225 1.426 2.332a967.957 967.957 0 0 1 2.373 4.094l.078.135.086.149-2.165 1.25ZM97.472 22.99a6.38 6.38 0 0 1-3.284.462 5.826 5.826 0 0 1-2.916-1.243 6.852 6.852 0 0 1-2.437-5.988 5.833 5.833 0 0 1 1.219-2.925 6.784 6.784 0 0 1 5.956-2.425 5.846 5.846 0 0 1 2.917 1.242 6.85 6.85 0 0 1 2.437 5.989 5.833 5.833 0 0 1-1.22 2.925 6.38 6.38 0 0 1-2.672 1.963Zm-.885-2.172a3.574 3.574 0 0 0 1.596-1.227c.39-.54.63-1.173.694-1.837a4.275 4.275 0 0 0-1.489-3.656 3.749 3.749 0 0 0-1.78-.83 3.786 3.786 0 0 0-3.592 1.463 3.739 3.739 0 0 0-.695 1.837 4.278 4.278 0 0 0 1.488 3.657c.51.43 1.124.716 1.78.83a3.582 3.582 0 0 0 1.998-.237ZM108.842 18.691 105.67 6.87l4.845-1.3a5.472 5.472 0 0 1 2.339-.164 3.375 3.375 0 0 1 1.784.86c.511.5.87 1.134 1.035 1.829a3.652 3.652 0 0 1-.022 2.246 3.59 3.59 0 0 1-1.132 1.598 4.514 4.514 0 0 1-1.655.855l-1.049.28.25-.798c.331.139.649.304.953.494.384.23 1.003.642 1.858 1.233.855.592 1.924 1.328 3.208 2.21l-2.948.791-6.649-4.892 3.363-.902c.365-.088.704-.258.991-.498.239-.204.412-.475.497-.777a1.836 1.836 0 0 0-.021-.975 1.768 1.768 0 0 0-.462-.823 1.53 1.53 0 0 0-.816-.414 2.496 2.496 0 0 0-1.105.072l-3.33.894.78-1.351 1.47 5.478-.179.066c.241.497.434 1.016.577 1.55.226.755.561 1.959 1.005 3.612l-2.415.648ZM123.842 15.08l-1.866-12.098 2.471-.381 1.865 12.097-2.47.381Zm-1.351-9.893-.345-2.232 7.618-1.174.344 2.232-7.617 1.174Zm.749 4.856-.337-2.18 6.68-1.03.337 2.18-6.68 1.03Zm.773 5.01-.345-2.233 7.616-1.174.345 2.232-7.616 1.175ZM144.333 8.316a1.919 1.919 0 0 1-1.004-.25 2.029 2.029 0 0 1-.727-.705 1.975 1.975 0 0 1 .105-2.2 1.973 1.973 0 0 1 1.558-.793c.346-.005.687.078.991.243.308.162.565.406.744.704a1.992 1.992 0 0 1 .033 1.99c-.171.3-.417.55-.712.728-.298.181-.639.28-.988.283Z"/></g><defs><clipPath id="a"><path fill="#fff" transform="translate(.833 .833)" d="M0 0h294v294H0z"/></clipPath></defs>
    </symbol>

    <!--  once-logo  -->

    <symbol  viewBox="0 0 39 14" id="once-logo">
        <path d="M11.6247 5.23579C11.6247 9.16743 8.86146 13.1566 4.80234 13.1566C1.98192 13.1566 0 10.9319 0 7.82492C0 3.64396 3.22062 0 6.8986 0C9.62373 0 11.6247 2.1672 11.6247 5.23579ZM2.28683 7.69067C2.28683 10.2798 3.4493 12.1018 5.06913 12.1018C7.83238 12.1018 9.33788 8.59207 9.33788 5.42758C9.33788 2.81927 8.23258 1.05483 6.66991 1.05483C4.26874 1.05483 2.28683 4.08507 2.28683 7.69067Z" />
        <path d="M21.1437 7.57579L20.267 11.028C20.1527 11.4882 20.3052 11.7376 20.6482 11.8143L21.3342 11.9677L21.258 12.6582L18.1327 13.0225C18.0183 12.4088 18.0564 11.7568 18.2851 10.8554L19.1427 7.49907C19.4285 6.36753 19.1999 5.63874 18.4948 5.63874C17.0083 5.63874 15.4838 9.07173 14.6834 12.8883L12.6443 12.965L14.0545 6.23328C14.1498 5.77299 14.0354 5.50448 13.6734 5.42777L12.9587 5.27434L13.035 4.58391L16.3509 4.21951C16.1031 5.42777 15.8173 6.44424 15.1312 8.30458C16.1984 5.71545 17.3609 4.18115 19.1522 4.18115C20.8578 4.18115 21.6391 5.61956 21.1437 7.57579Z" />
        <path d="M30.6721 4.60308L30.1957 6.78946H29.3953C29.3 5.71545 28.938 5.14009 28.1757 5.14009C26.5749 5.14009 25.1456 7.32646 25.1456 9.41695C25.1456 10.817 25.8126 11.6992 26.8989 11.6992C27.7374 11.6992 28.5187 11.3348 29.281 10.7019L29.6812 11.2965C28.8998 12.3129 27.7183 13.0993 26.27 13.0993C24.2881 13.0993 22.9731 11.7184 22.9731 9.68545C22.9731 6.71275 25.5268 4.18115 28.4806 4.18115C29.2238 4.18115 29.9289 4.3154 30.6721 4.60308Z" />
        <path d="M33.4528 8.87945C33.4337 9.1096 33.4147 9.33974 33.4147 9.56989C33.4147 10.7973 34.0245 11.6987 35.1298 11.6987C36.0636 11.6987 36.883 11.3343 37.7025 10.7014L38.1217 11.3152C37.0545 12.4659 35.854 13.0988 34.4819 13.0988C32.519 13.0988 31.2422 11.7563 31.2422 9.76168C31.2422 6.63554 33.853 4.18066 36.6543 4.18066C37.9693 4.18066 38.9983 4.75603 38.9983 5.96429C38.9983 7.9397 36.5972 8.82192 33.4528 8.87945ZM33.6243 8.03559C35.1298 7.9397 37.0355 7.51776 37.0355 6.02182C37.0355 5.46564 36.7496 5.1396 36.2923 5.1396C35.0345 5.1396 34.0436 6.50129 33.6243 8.03559Z" />
    </symbol>

    <!-- ego -->

    <symbol viewBox="0 0 165 44" id="ego">
        <g clip-path="url(#clip0_182_7404)">
            <path d="M164.773 18.4587C164.471 8.09858 156.186 0.366268 145.634 0.0639518C144.925 0.0639518 140.867 0 139.385 0C137.902 0 133.85 0.0406967 133.141 0.0639518C122.624 0.366268 114.339 8.09858 114.037 18.4587C113.996 19.8482 113.996 23.1097 114.037 24.5283C114.339 34.9117 122.624 42.6207 133.158 42.923C134.571 42.9637 137.228 43.0102 139.402 43.0102C141.576 43.0102 144.233 42.9812 145.634 42.923C156.169 42.6207 164.454 34.9117 164.756 24.5283C164.82 23.1388 164.82 19.8482 164.773 18.4587ZM155.285 25.662C154.942 30.8944 150.966 34.0861 145.64 34.3826C144.751 34.4291 143.355 34.6268 139.402 34.6268C135.449 34.6268 134.059 34.4291 133.17 34.3826C127.844 34.0919 123.868 30.8944 123.525 25.662C123.49 25.1329 123.414 23.3365 123.414 21.5109C123.414 19.6854 123.49 17.8599 123.525 17.3308C123.868 12.0984 127.844 8.89506 133.17 8.61019C134.059 8.55786 135.455 8.36601 139.402 8.36601C143.35 8.36601 144.751 8.55786 145.64 8.61019C150.966 8.89506 154.942 12.0984 155.285 17.3308C155.32 17.8541 155.402 19.6563 155.402 21.4935C155.402 23.3306 155.32 25.1329 155.285 25.662Z" />
            <path d="M98.5436 25.6621C98.1948 30.8944 94.2182 34.0688 88.8928 34.3536C88.0033 34.4001 86.608 34.5978 82.6604 34.5978C78.7129 34.5978 77.3176 34.4001 76.4281 34.3536C71.0969 34.0688 67.1261 30.8654 66.7772 25.6621C66.7423 25.133 66.6668 23.3365 66.6668 21.511C66.6668 19.6855 66.7423 17.86 66.7772 17.3309C67.1261 12.0985 71.0969 8.89515 76.4281 8.61028C77.3176 8.55795 78.7129 8.3661 82.6604 8.3661C86.608 8.3661 88.0033 8.55795 88.8928 8.61028C94.2182 8.89515 98.1948 12.0985 98.5436 17.3309V17.4007H107.654C106.84 7.5638 99.0727 0.372172 88.9044 0.07567C88.1951 0.07567 84.1429 0.0117188 82.6604 0.0117188C81.1779 0.0117188 77.1199 0.0524149 76.4165 0.07567C65.8819 0.366358 57.5973 8.09867 57.3008 18.4588C57.2601 19.8483 57.2601 23.1098 57.3008 24.5284C57.5973 34.9118 65.8819 42.6208 76.4223 42.9231C77.835 42.9638 80.4919 43.0103 82.6662 43.0103C84.8406 43.0103 87.4975 42.9813 88.9102 42.9231C99.0727 42.6324 106.828 35.4466 107.66 25.6214H98.5436V25.6621Z" />
            <path d="M82.5728 25.6215H98.5432C98.5781 25.0401 98.6594 23.2959 98.6594 21.4937C98.6594 19.6914 98.5839 18.0054 98.5432 17.3892H82.5728V25.6215Z" />
            <path d="M50.7668 18.4587C50.4819 8.09858 42.1799 0.366268 31.6453 0.0639518C30.936 0.0639518 26.8839 0 25.4013 0C23.9188 0 19.8608 0.0406967 19.1574 0.0639518C8.617 0.366268 0.332384 8.09858 0.0300682 18.4587C-0.0048144 19.8482 -0.0048144 23.1097 0.0300682 24.5283C0.332384 34.9117 8.617 42.6207 19.1574 42.923C20.5701 42.9637 23.1979 43.0102 25.4013 43.0102V34.8419C21.4538 34.8419 20.0585 34.6442 19.169 34.5977C13.8378 34.307 9.86696 30.8944 9.51813 25.6736C9.48325 25.1445 9.40767 23.3481 9.40767 21.5226C9.40767 19.697 9.48325 17.8715 9.51813 17.3425C9.86696 12.1101 13.8378 8.90669 19.169 8.62181C20.0585 8.56949 21.4538 8.37764 25.4013 8.37764C29.3489 8.37764 30.7442 8.56949 31.6337 8.62181C36.9591 8.90669 40.9357 12.1915 41.2846 17.4122H25.3955V25.6271H50.7784C50.7784 25.6271 50.8715 23.2144 50.7668 18.4587Z" />
            <path d="M41.9296 33.6793C41.9296 33.6793 40.4936 33.6328 39.6855 33.6328C38.8774 33.6328 37.36 33.6793 37.36 33.6793C36.4398 33.6684 35.5526 34.0216 34.8916 34.6619C34.2306 35.3022 33.8494 36.1777 33.8311 37.0978C33.7728 38.031 33.7728 38.9669 33.8311 39.9001C33.8612 40.8168 34.2459 41.686 34.9041 42.3248C35.5624 42.9635 36.4428 43.3218 37.36 43.3244C37.36 43.3244 38.6623 43.3767 39.546 43.3767C40.4297 43.3767 41.9064 43.3244 41.9064 43.3244C42.8276 43.3353 43.7157 42.9813 44.3768 42.3398C45.038 41.6982 45.4185 40.8212 45.4353 39.9001C45.5142 38.9676 45.5142 38.0302 45.4353 37.0978C45.417 36.1818 45.0391 35.3097 44.3831 34.6701C43.7271 34.0304 42.8458 33.6746 41.9296 33.6793Z" />
        </g>
        <defs>
            <clipPath id="clip0_182_7404">
                <rect width="164.797" height="43.3591" />
            </clipPath>
        </defs>
    </symbol>

    <!--  linkedin  -->

    <symbol viewBox="0 0 24 24" id="linkedin">
        <path fill-rule="evenodd" clip-rule="evenodd" d="M1 2.838C1 2.35053 1.19365 1.88303 1.53834 1.53834C1.88303 1.19365 2.35053 1 2.838 1H21.16C21.4016 0.999608 21.6409 1.04687 21.8641 1.13907C22.0874 1.23127 22.2903 1.36661 22.4612 1.53734C22.6322 1.70807 22.7677 1.91083 22.8602 2.13401C22.9526 2.3572 23.0001 2.59643 23 2.838V21.16C23.0003 21.4016 22.9529 21.6409 22.8606 21.8642C22.7683 22.0875 22.6328 22.2904 22.462 22.4613C22.2912 22.6322 22.0884 22.7678 21.8651 22.8602C21.6419 22.9526 21.4026 23.0001 21.161 23H2.838C2.59655 23 2.35746 22.9524 2.1344 22.86C1.91134 22.7676 1.70867 22.6321 1.53798 22.4613C1.3673 22.2905 1.23193 22.0878 1.13962 21.8647C1.04731 21.6416 0.999869 21.4025 1 21.161V2.838ZM9.708 9.388H12.687V10.884C13.117 10.024 14.217 9.25 15.87 9.25C19.039 9.25 19.79 10.963 19.79 14.106V19.928H16.583V14.822C16.583 13.032 16.153 12.022 15.061 12.022C13.546 12.022 12.916 13.111 12.916 14.822V19.928H9.708V9.388ZM4.208 19.791H7.416V9.25H4.208V19.79V19.791ZM7.875 5.812C7.88105 6.08668 7.83217 6.35979 7.73124 6.61532C7.63031 6.87084 7.47935 7.10364 7.28723 7.30003C7.09511 7.49643 6.8657 7.65248 6.61246 7.75901C6.35921 7.86554 6.08724 7.92042 5.8125 7.92042C5.53776 7.92042 5.26579 7.86554 5.01255 7.75901C4.7593 7.65248 4.52989 7.49643 4.33777 7.30003C4.14565 7.10364 3.99469 6.87084 3.89376 6.61532C3.79283 6.35979 3.74395 6.08668 3.75 5.812C3.76187 5.27286 3.98439 4.75979 4.36989 4.38269C4.75539 4.00558 5.27322 3.79442 5.8125 3.79442C6.35178 3.79442 6.86961 4.00558 7.25512 4.38269C7.64062 4.75979 7.86313 5.27286 7.875 5.812Z" />
    </symbol>

    <!--  facebook  -->

    <symbol viewBox="0 0 7 14" id="facebook">
        <path d="M6.54128 7.875L6.90427 5.34133H4.63467V3.69715C4.63467 3.00398 4.95172 2.32832 5.9682 2.32832H7V0.171172C7 0.171172 6.06367 0 5.16844 0C3.29936 0 2.07764 1.21352 2.07764 3.41031V5.34133H0V7.875H2.07764V14H4.63467V7.875H6.54128Z" />
    </symbol>

    <!--  twitter  -->

    <symbol viewBox="0 0 12 10" id="twitter">
        <path d="M12 1.18618C11.5587 1.38663 11.0846 1.52207 10.5863 1.58329C11.1005 1.26788 11.4852 0.771451 11.6686 0.186645C11.1855 0.480812 10.6567 0.687874 10.1053 0.798828C9.73454 0.39298 9.2434 0.123978 8.70818 0.0335847C8.17295 -0.0568083 7.62359 0.0364655 7.14537 0.298925C6.66716 0.561384 6.28685 0.978345 6.0635 1.48507C5.84015 1.9918 5.78624 2.55994 5.91016 3.10129C4.93122 3.0509 3.97355 2.79008 3.09932 2.33574C2.22508 1.8814 1.4538 1.2437 0.83555 0.464023C0.624152 0.837834 0.502598 1.27124 0.502598 1.73281C0.502363 2.14834 0.602184 2.5575 0.793206 2.92399C0.984229 3.29048 1.26055 3.60297 1.59764 3.83374C1.2067 3.82099 0.824385 3.7127 0.482516 3.5179V3.5504C0.482476 4.13319 0.679133 4.69804 1.03912 5.14912C1.3991 5.60019 1.90024 5.90971 2.4575 6.02514C2.09484 6.12575 1.71462 6.14057 1.34555 6.06848C1.50277 6.56993 1.80903 7.00844 2.22146 7.3226C2.63388 7.63677 3.13182 7.81086 3.64556 7.82052C2.77345 8.52231 1.69641 8.90299 0.587686 8.90131C0.391287 8.90137 0.195055 8.88961 0 8.8661C1.12542 9.60786 2.43548 10.0015 3.77345 9.99999C8.30265 9.99999 10.7786 6.15462 10.7786 2.81957C10.7786 2.71122 10.776 2.60179 10.7712 2.49344C11.2529 2.13641 11.6686 1.69429 11.9989 1.18781L12 1.18618Z" />
    </symbol>

    <!--  arrow  -->

    <symbol viewBox="0 0 9 15" id="arrow">
        <path d="M7.27417 1.50877e-07C7.84469 0.588524 8.42234 1.16969 9 1.75821C7.1244 3.69299 5.27734 5.59833 3.43027 7.50368C5.28447 9.41638 7.13867 11.3291 8.97861 13.2271C8.39382 13.8377 7.8233 14.4188 7.26704 15C4.85658 12.5135 2.43185 10.0123 -6.55349e-07 7.50368C0.0285256 7.47425 0.0641835 7.43011 0.106973 7.39333C2.45325 4.97303 4.79952 2.55272 7.13867 0.132417C7.17433 0.0956346 7.20998 0.0441391 7.24564 1.53371e-07C7.25277 1.52747e-07 7.2599 1.52124e-07 7.27417 1.50877e-07Z" />
    </symbol>

    <!--  share  -->

    <symbol viewBox="0 0 12 12" id="share">
        <path d="M6.75198 4.41923L4.41864 6.75257C4.36397 6.8068 4.32057 6.87131 4.29096 6.9424C4.26134 7.01348 4.24609 7.08973 4.24609 7.16673C4.24609 7.24374 4.26134 7.31999 4.29096 7.39107C4.32057 7.46216 4.36397 7.52667 4.41864 7.5809C4.47287 7.63558 4.53739 7.67897 4.60847 7.70859C4.67956 7.7382 4.7558 7.75345 4.83281 7.75345C4.90982 7.75345 4.98606 7.7382 5.05715 7.70859C5.12823 7.67897 5.19275 7.63558 5.24698 7.5809L7.58031 5.24757C7.69015 5.13772 7.75186 4.98874 7.75186 4.8334C7.75186 4.67806 7.69015 4.52908 7.58031 4.41923C7.47047 4.30939 7.32149 4.24768 7.16614 4.24768C7.0108 4.24768 6.86182 4.30939 6.75198 4.41923Z" />
        <path d="M6.16372 9.15006L5.41705 9.89089C4.99788 10.3228 4.43439 10.5853 3.83405 10.6284C3.23371 10.6714 2.63854 10.4919 2.16205 10.1242C1.91021 9.9167 1.7047 9.65866 1.55879 9.36677C1.41288 9.07487 1.32983 8.75562 1.31498 8.42963C1.30014 8.10364 1.35384 7.77816 1.47262 7.47421C1.5914 7.17027 1.77261 6.89461 2.00455 6.66506L2.83288 5.8309C2.88756 5.77667 2.93096 5.71215 2.96057 5.64107C2.99019 5.56998 3.00543 5.49374 3.00543 5.41673C3.00543 5.33972 2.99019 5.26348 2.96057 5.19239C2.93096 5.12131 2.88756 5.05679 2.83288 5.00256C2.77866 4.94789 2.71414 4.90449 2.64305 4.87488C2.57197 4.84526 2.49572 4.83001 2.41872 4.83001C2.34171 4.83001 2.26547 4.84526 2.19438 4.87488C2.1233 4.90449 2.05878 4.94789 2.00455 5.00256L1.26372 5.74923C0.639643 6.35357 0.256059 7.16383 0.184181 8.02958C0.112304 8.89533 0.357016 9.75775 0.872884 10.4567C1.17906 10.8539 1.56626 11.1814 2.00874 11.4175C2.45123 11.6536 2.93888 11.7928 3.43931 11.8259C3.93973 11.859 4.44147 11.7852 4.91119 11.6095C5.38092 11.4338 5.80788 11.1601 6.16372 10.8067L6.99205 9.97839C7.10189 9.86855 7.1636 9.71957 7.1636 9.56423C7.1636 9.40889 7.10189 9.25991 6.99205 9.15006C6.88221 9.04022 6.73323 8.97851 6.57788 8.97851C6.42254 8.97851 6.27356 9.04022 6.16372 9.15006ZM10.4687 0.878396C9.76492 0.357167 8.89545 0.109964 8.02271 0.18296C7.14997 0.255957 6.33365 0.644162 5.72622 1.27506L5.09622 1.91673C5.02421 1.96908 4.964 2.03596 4.91948 2.11305C4.87496 2.19015 4.84712 2.27573 4.83778 2.36426C4.82843 2.45279 4.83777 2.5423 4.86521 2.62699C4.89265 2.71168 4.93756 2.78966 4.99705 2.8559C5.05128 2.91057 5.1158 2.95397 5.18688 2.98358C5.25797 3.0132 5.33421 3.02844 5.41122 3.02844C5.48822 3.02844 5.56447 3.0132 5.63555 2.98358C5.70664 2.95397 5.77116 2.91057 5.82538 2.8559L6.58372 2.09173C7.00057 1.65791 7.56339 1.39397 8.16348 1.35087C8.76356 1.30778 9.35833 1.4886 9.83288 1.8584C10.0866 2.06595 10.2937 2.32463 10.4408 2.61758C10.5879 2.91054 10.6716 3.23119 10.6864 3.55865C10.7013 3.88611 10.647 4.21303 10.5271 4.5181C10.4071 4.82317 10.2243 5.09955 9.99038 5.32923L9.16205 6.1634C9.10738 6.21762 9.06398 6.28214 9.03436 6.35323C9.00475 6.42431 8.9895 6.50056 8.9895 6.57756C8.9895 6.65457 9.00475 6.73081 9.03436 6.8019C9.06398 6.87298 9.10738 6.9375 9.16205 6.99173C9.21628 7.0464 9.2808 7.0898 9.35188 7.11942C9.42297 7.14903 9.49921 7.16428 9.57622 7.16428C9.65322 7.16428 9.72947 7.14903 9.80055 7.11942C9.87164 7.0898 9.93616 7.0464 9.99038 6.99173L10.8187 6.1634C11.1711 5.80762 11.444 5.38103 11.6191 4.91188C11.7942 4.44272 11.8677 3.94171 11.8346 3.44203C11.8015 2.94235 11.6626 2.4554 11.4271 2.01344C11.1917 1.57148 10.865 1.18459 10.4687 0.878396Z" />
    </symbol>

    <!--  play  -->

    <symbol viewBox="0 0 18 22" id="play">
        <path d="M18 11L-9.78799e-07 21.3923L-7.02746e-08 0.607695L18 11Z" />
    </symbol>

    <!--  footer-logo  -->

    <symbol viewBox="0 0 175 110" id="footer-logo">
        <path d="M41.7886 88.3316H43.7786V90.4874C43.2258 90.5979 42.673 90.6532 42.065 90.6532C40.9595 90.6532 40.1303 90.3768 39.5776 89.8793C39.0248 89.3819 38.7484 88.608 38.7484 87.613C38.7484 86.6733 39.0248 85.8994 39.6328 85.3467C40.2409 84.7939 41.07 84.5175 42.1203 84.5175C42.8389 84.5175 43.6127 84.6834 44.3866 84.9597L44.4972 85.015L44.9946 84.02L44.8841 83.9648C44.0549 83.6331 43.1152 83.5226 42.1755 83.5226C41.2358 83.5226 40.3514 83.6884 39.6881 84.02C38.9695 84.3517 38.4167 84.8492 38.0298 85.4572C37.6429 86.0653 37.4771 86.8391 37.4771 87.6683C37.4771 88.9396 37.864 89.9899 38.6379 90.7085C39.4117 91.4271 40.5173 91.814 41.8992 91.814C42.5625 91.814 43.1152 91.7587 43.6127 91.7035C44.1102 91.6482 44.6077 91.5376 45.0499 91.4271H45.1605V87.4472H41.8992V88.3316H41.7886Z" />
        <path d="M57.266 85.8994C57.266 85.1256 56.9896 84.5175 56.4368 84.1306C55.8841 83.7437 55.0549 83.5778 53.9494 83.5778H51.3514V91.5929H52.6228V88.3869H54.2811L56.4368 91.5929H57.9846L55.4972 88.0552C56.658 87.6683 57.266 86.9497 57.266 85.8994ZM55.9394 85.9547C55.9394 86.3969 55.7735 86.7839 55.4972 87.005C55.1655 87.2261 54.668 87.3366 53.9494 87.3366H52.6228V84.6281H53.8389C54.5575 84.6281 55.1102 84.7386 55.4419 84.9597C55.7735 85.1256 55.9394 85.4572 55.9394 85.9547Z" />
        <path d="M67.2157 83.4673C65.8891 83.4673 64.8389 83.8542 64.065 84.5728C63.3464 85.2914 62.9595 86.2864 62.9595 87.613C62.9595 88.9396 63.3464 89.9346 64.065 90.6532C64.7836 91.3718 65.8338 91.7587 67.2157 91.7587C68.5424 91.7587 69.5926 91.3718 70.3112 90.6532C71.0298 89.9346 71.4167 88.8844 71.4167 87.613C71.4167 86.3417 71.0298 85.3467 70.3112 84.5728C69.5926 83.8542 68.5424 83.4673 67.2157 83.4673ZM67.2157 90.6532C66.2761 90.6532 65.5575 90.3768 65.06 89.8793C64.5625 89.3819 64.3414 88.608 64.3414 87.5577C64.3414 86.5628 64.5625 85.7889 65.06 85.2914C65.5575 84.7939 66.2761 84.5175 67.2157 84.5175C68.1554 84.5175 68.874 84.7939 69.3715 85.2914C69.869 85.7889 70.0901 86.5628 70.0901 87.5577C70.0901 88.5527 69.869 89.3266 69.3715 89.8793C68.874 90.3768 68.1554 90.6532 67.2157 90.6532Z" />
        <path d="M83.2459 88.7738C83.2459 89.3819 83.0801 89.8793 82.6931 90.1557C82.3062 90.4874 81.7534 90.6532 81.0348 90.6532C80.261 90.6532 79.7082 90.4874 79.3213 90.1557C78.9343 89.8241 78.7685 89.3819 78.7685 88.7738V83.5778H77.4972V88.7185C77.4972 89.6582 77.8288 90.3768 78.4368 90.9296C79.0449 91.4824 79.9293 91.7035 81.0348 91.7035C82.1404 91.7035 83.0248 91.4271 83.6328 90.9296C84.2962 90.3768 84.5725 89.6582 84.5725 88.7738V83.6331H83.3012V88.7738H83.2459Z" />
        <path d="M93.4168 83.5778H90.9846V91.5929H92.2559V88.5527H93.1957C94.3565 88.5527 95.2962 88.3316 95.9042 87.8894C96.5675 87.4472 96.8992 86.7839 96.8992 85.9547C96.8992 84.407 95.7384 83.5778 93.4168 83.5778ZM95.5725 86.01C95.5725 86.5628 95.4067 86.8944 95.0198 87.1708C94.6328 87.3919 93.9695 87.5577 93.0851 87.5577H92.2559V84.6281H93.3062C94.0801 84.6281 94.6881 84.7386 95.0198 84.9597C95.4067 85.1809 95.5725 85.5125 95.5725 86.01Z" />
        <path d="M96.8433 79.2108V46.8188H87.17V59.5877H87.1147C85.4564 57.4872 82.6926 56.4922 78.768 56.4922C73.3509 56.4922 68.3207 59.2008 67.1046 65.2259C65.8333 59.2008 60.8031 56.4922 55.4413 56.4922C51.5167 56.4922 48.7529 57.4872 47.0946 59.5877H47.0393V57.2108H37.6423V79.2108H47.0393V68.2661C47.0393 65.1706 48.6423 63.2359 52.3459 63.2359C55.8283 63.2359 57.5971 65.447 57.5971 68.2661V79.2108H67.4916V72.5776C69.1499 77.7736 73.8484 80.0952 78.8785 80.0952C83.1348 80.0952 85.8433 78.9897 87.5569 76.8339H87.6122V79.1555H96.8433V79.2108ZM81.9187 73.2962C78.1599 73.2962 76.6122 71.1957 76.6122 68.2661C76.6122 65.447 78.381 63.2359 81.8634 63.2359C85.6222 63.2359 87.17 65.1153 87.17 68.2661C87.17 71.4168 85.6222 73.2962 81.9187 73.2962Z" />
        <path d="M109.835 109.724H0.16626V0.0551758H109.835V109.724ZM3.37229 106.517H106.684V3.20593H3.37229V106.517Z" />
        <path d="M120.88 49.9707V53H119.806V45.1313C120.618 45.0955 121.109 45.0776 121.277 45.0776C123.562 45.0776 124.704 45.8421 124.704 47.3711C124.704 49.14 123.694 50.0244 121.675 50.0244C121.553 50.0244 121.288 50.0065 120.88 49.9707ZM120.88 46.0981V49.0039C121.335 49.0397 121.575 49.0576 121.6 49.0576C122.932 49.0576 123.598 48.533 123.598 47.4839C123.598 46.5243 122.887 46.0444 121.465 46.0444C121.322 46.0444 121.127 46.0623 120.88 46.0981ZM132.946 53L130.846 49.6216C130.606 49.6216 130.227 49.6037 129.707 49.5679V53H128.633V45.1313C128.673 45.1313 128.95 45.1188 129.466 45.0938C129.985 45.0651 130.363 45.0508 130.599 45.0508C132.49 45.0508 133.435 45.8027 133.435 47.3066C133.435 47.8008 133.283 48.2466 132.978 48.644C132.674 49.0379 132.312 49.2832 131.893 49.3799L134.176 53H132.946ZM129.707 46.0981V48.6548C129.965 48.6906 130.216 48.7085 130.459 48.7085C131.104 48.7085 131.573 48.6047 131.867 48.397C132.16 48.1893 132.307 47.8187 132.307 47.2852C132.307 46.8447 132.149 46.5278 131.834 46.3345C131.519 46.1411 131.022 46.0444 130.341 46.0444C130.234 46.0444 130.022 46.0623 129.707 46.0981ZM137.81 53V45.1313H138.884V53H137.81ZM146.063 53.1074H145.52L142.587 45.1313H143.78L145.805 50.9268L147.754 45.1313H148.909L146.063 53.1074ZM155.771 53L155.228 51.3403H152.301L151.721 53H150.518L153.714 45.0239H153.998L156.963 53H155.771ZM153.805 47.0864L152.586 50.5508H154.922L153.805 47.0864ZM162.224 46.0981V53H161.15V46.0981H158.647V45.1313H164.84V46.0981H162.224ZM169.462 46.0981V48.2842H172.062V49.1973H169.462V52.0332H173.028V53H168.388V45.1313H173.088V46.0981H169.462ZM120.88 58.0981V60.2842H123.479V61.1973H120.88V64.0332H124.446V65H119.806V57.1313H124.505V58.0981H120.88ZM135.702 65.5801L135.54 66.6274C133.664 66.6274 132.434 66.1064 131.85 65.0645C131.739 65.111 131.501 65.1343 131.136 65.1343C130.144 65.1343 129.367 64.7476 128.805 63.9741C128.246 63.2007 127.967 62.2088 127.967 60.9985C127.967 59.8634 128.252 58.9128 128.821 58.1465C129.39 57.3766 130.162 56.9917 131.136 56.9917C132.228 56.9917 133.064 57.3444 133.644 58.0498C134.228 58.7552 134.52 59.7381 134.52 60.9985C134.52 62.8068 133.979 64.0475 132.898 64.7207C133.288 65.2936 133.943 65.5801 134.864 65.5801H135.702ZM131.136 57.9585C130.47 57.9585 129.963 58.2306 129.616 58.7749C129.269 59.3192 129.095 60.0604 129.095 60.9985C129.095 61.9009 129.272 62.6546 129.627 63.2598C129.985 63.8649 130.488 64.1675 131.136 64.1675C131.874 64.1675 132.434 63.8882 132.817 63.3296C133.2 62.7674 133.392 61.9904 133.392 60.9985C133.392 58.9718 132.64 57.9585 131.136 57.9585ZM138.417 57.1313H139.491V62.5186C139.491 62.9984 139.643 63.394 139.947 63.7056C140.252 64.0135 140.655 64.1675 141.156 64.1675C141.686 64.1675 142.103 64.0171 142.407 63.7163C142.712 63.4155 142.864 63.0073 142.864 62.4917V57.1313H143.938V62.6045C143.938 63.3994 143.689 64.0207 143.192 64.4683C142.697 64.9123 142.023 65.1343 141.167 65.1343C140.286 65.1343 139.607 64.9159 139.131 64.479C138.655 64.0422 138.417 63.4155 138.417 62.5991V57.1313ZM148.378 65V57.1313H149.452V65H148.378ZM156.759 58.0981V65H155.685V58.0981H153.182V57.1313H159.375V58.0981H156.759ZM165.796 61.4766V65H164.722V61.4766L162.187 57.1313H163.293L165.254 60.5688L167.214 57.1313H168.321L165.796 61.4766ZM125.854 77.1074H125.515L123.641 71.6826L121.89 77.1074H121.551L119.07 69.1313H120.187L121.766 74.626L123.496 69.1313H123.872L125.58 74.6152L127.186 69.1313H128.303L125.854 77.1074ZM132.012 77V69.1313H133.086V77H132.012ZM140.393 70.0981V77H139.319V70.0981H136.816V69.1313H143.009V70.0981H140.393ZM151.068 77V73.1973H147.631V77H146.557V69.1313H147.631V72.2842H151.068V69.1313H152.143V77H151.068ZM120.88 85.9707V89H119.806V81.1313C120.618 81.0955 121.109 81.0776 121.277 81.0776C123.562 81.0776 124.704 81.8421 124.704 83.3711C124.704 85.14 123.694 86.0244 121.675 86.0244C121.553 86.0244 121.288 86.0065 120.88 85.9707ZM120.88 82.0981V85.0039C121.335 85.0397 121.575 85.0576 121.6 85.0576C122.932 85.0576 123.598 84.533 123.598 83.4839C123.598 82.5243 122.887 82.0444 121.465 82.0444C121.322 82.0444 121.127 82.0623 120.88 82.0981ZM131.824 89L131.281 87.3403H128.354L127.774 89H126.571L129.766 81.0239H130.051L133.016 89H131.824ZM129.858 83.0864L128.639 86.5508H130.975L129.858 83.0864ZM136.129 88.6401L136.521 87.6519C136.721 87.7987 136.97 87.9222 137.267 88.0225C137.568 88.1191 137.837 88.1675 138.073 88.1675C138.492 88.1675 138.829 88.0529 139.083 87.8237C139.337 87.5946 139.464 87.3027 139.464 86.9482C139.464 86.6833 139.392 86.438 139.249 86.2124C139.11 85.9832 138.755 85.7344 138.186 85.4658L137.552 85.1704C137.015 84.9198 136.639 84.6226 136.424 84.2788C136.213 83.9351 136.107 83.5215 136.107 83.0381C136.107 82.4508 136.315 81.9639 136.73 81.5771C137.146 81.1904 137.679 80.9971 138.331 80.9971C139.201 80.9971 139.806 81.1385 140.146 81.4214L139.829 82.356C139.686 82.2521 139.468 82.1519 139.174 82.0552C138.88 81.9585 138.608 81.9102 138.358 81.9102C137.992 81.9102 137.704 82.014 137.493 82.2217C137.285 82.4294 137.181 82.6961 137.181 83.022C137.181 83.2225 137.219 83.4051 137.294 83.5698C137.369 83.7345 137.473 83.8724 137.606 83.9834C137.742 84.0944 138.017 84.2502 138.433 84.4507L139.077 84.7568C139.614 85.0111 139.99 85.3154 140.205 85.6699C140.424 86.0208 140.533 86.4684 140.533 87.0127C140.533 87.6035 140.295 88.1048 139.819 88.5166C139.346 88.9284 138.712 89.1343 137.917 89.1343C137.219 89.1343 136.623 88.9696 136.129 88.6401ZM144.065 88.6401L144.457 87.6519C144.657 87.7987 144.906 87.9222 145.203 88.0225C145.504 88.1191 145.773 88.1675 146.009 88.1675C146.428 88.1675 146.764 88.0529 147.019 87.8237C147.273 87.5946 147.4 87.3027 147.4 86.9482C147.4 86.6833 147.328 86.438 147.185 86.2124C147.045 85.9832 146.691 85.7344 146.122 85.4658L145.488 85.1704C144.951 84.9198 144.575 84.6226 144.36 84.2788C144.149 83.9351 144.043 83.5215 144.043 83.0381C144.043 82.4508 144.251 81.9639 144.666 81.5771C145.081 81.1904 145.615 80.9971 146.267 80.9971C147.137 80.9971 147.742 81.1385 148.082 81.4214L147.765 82.356C147.622 82.2521 147.404 82.1519 147.11 82.0552C146.816 81.9585 146.544 81.9102 146.294 81.9102C145.928 81.9102 145.64 82.014 145.429 82.2217C145.221 82.4294 145.117 82.6961 145.117 83.022C145.117 83.2225 145.155 83.4051 145.23 83.5698C145.305 83.7345 145.409 83.8724 145.542 83.9834C145.678 84.0944 145.953 84.2502 146.369 84.4507L147.013 84.7568C147.55 85.0111 147.926 85.3154 148.141 85.6699C148.36 86.0208 148.469 86.4684 148.469 87.0127C148.469 87.6035 148.231 88.1048 147.754 88.5166C147.282 88.9284 146.648 89.1343 145.853 89.1343C145.155 89.1343 144.559 88.9696 144.065 88.6401ZM152.543 89V81.1313H153.617V89H152.543ZM157.68 84.9985C157.68 83.8599 157.965 82.9074 158.534 82.1411C159.107 81.3748 159.879 80.9917 160.849 80.9917C161.942 80.9917 162.778 81.3444 163.358 82.0498C163.941 82.7552 164.233 83.7381 164.233 84.9985C164.233 86.2912 163.941 87.3045 163.358 88.0386C162.774 88.769 161.938 89.1343 160.849 89.1343C159.858 89.1343 159.081 88.7476 158.518 87.9741C157.96 87.2007 157.68 86.2088 157.68 84.9985ZM158.808 84.9985C158.808 85.9009 158.986 86.6546 159.34 87.2598C159.698 87.8649 160.201 88.1675 160.849 88.1675C161.583 88.1675 162.142 87.89 162.525 87.335C162.912 86.7799 163.105 86.0011 163.105 84.9985C163.105 82.9718 162.353 81.9585 160.849 81.9585C160.183 81.9585 159.677 82.2306 159.329 82.7749C158.982 83.3192 158.808 84.0604 158.808 84.9985ZM173.195 89.1074L169.129 83.355V89H168.109V81.1313H168.538L172.497 86.5723V81.1313H173.517V89.1074H173.195Z" />
    </symbol>
</svg>
